%!PS-Adobe-2.0 EPSF-2.0
%%BoundingBox:  0 0 567 493
%%Title: : #sqrt{s}=13 TeV (50ns)
%%Creator: ROOT Version 6.02/10
%%CreationDate: Tue Jul 21 23:39:57 2015
%%EndComments
%%BeginProlog
80 dict begin
/s {stroke} def /l {lineto} def /m {moveto} def /t {translate} def
/r {rotate} def /rl {roll}  def /R {repeat} def
/d {rlineto} def /rm {rmoveto} def /gr {grestore} def /f {eofill} def
/c {setrgbcolor} def /black {0 setgray} def /sd {setdash} def
/cl {closepath} def /sf {scalefont setfont} def /lw {setlinewidth} def
/box {m dup 0 exch d exch 0 d 0 exch neg d cl} def
/NC{systemdict begin initclip end}def/C{NC box clip newpath}def
/bl {box s} def /bf {gsave box gsave f grestore 1 lw [] 0 sd s grestore} def /Y { 0 exch d} def /X { 0 d} def 
/K {{pop pop 0 moveto} exch kshow} bind def
/ita {/ang 15 def gsave [1 0 ang dup sin exch cos div 1 0 0] concat} def 
/mp {newpath /y exch def /x exch def} def
/side {[w .77 mul w .23 mul] .385 w mul sd w 0 l currentpoint t -144 r} def
/mr {mp x y w2 0 360 arc} def /m24 {mr s} def /m20 {mr f} def
/mb {mp x y w2 add m w2 neg 0 d 0 w neg d w 0 d 0 w d cl} def
/mt {mp x y w2 add m w2 neg w neg d w 0 d cl} def
/m21 {mb f} def /m25 {mb s} def /m22 {mt f} def /m26{mt s} def
/m23 {mp x y w2 sub m w2 w d w neg 0 d cl f} def
/m27 {mp x y w2 add m w3 neg w2 neg d w3 w2 neg d w3 w2 d cl s} def
/m28 {mp x w2 sub y w2 sub w3 add m w3 0 d  0 w3 neg d w3 0 d 0 w3 d w3 0 d  0 w3 d w3 neg 0 d 0 w3 d w3 neg 0 d 0 w3 neg d w3 neg 0 d cl s } def
/m29 {mp gsave x w2 sub y w2 add w3 sub m currentpoint t 4 {side} repeat cl fill gr} def
/m30 {mp gsave x w2 sub y w2 add w3 sub m currentpoint t 4 {side} repeat cl s gr} def
/m31 {mp x y w2 sub m 0 w d x w2 sub y m w 0 d x w2 sub y w2 add m w w neg d x w2 sub y w2 sub m w w d s} def
/m32 {mp x y w2 sub m w2 w d w neg 0 d cl s} def
/m33 {mp x y w2 add m w3 neg w2 neg d w3 w2 neg d w3 w2 d cl f} def
/m34 {mp x w2 sub y w2 sub w3 add m w3 0 d  0 w3 neg d w3 0 d 0 w3 d w3 0 d  0 w3 d w3 neg 0 d 0 w3 d w3 neg 0 d 0 w3 neg d w3 neg 0 d cl f } def
/m2 {mp x y w2 sub m 0 w d x w2 sub y m w 0 d s} def
/m5 {mp x w2 sub y w2 sub m w w d x w2 sub y w2 add m w w neg d s} def
/reEncode {exch findfont dup length dict begin {1 index /FID eq  {pop pop} {def} ifelse } forall /Encoding exch def currentdict end dup /FontName get exch definefont pop } def [/Times-Bold /Times-Italic /Times-BoldItalic /Helvetica /Helvetica-Oblique
 /Helvetica-Bold /Helvetica-BoldOblique /Courier /Courier-Oblique /Courier-Bold /Courier-BoldOblique /Times-Roman /AvantGarde-Book /AvantGarde-BookOblique /AvantGarde-Demi /AvantGarde-DemiOblique /Bookman-Demi /Bookman-DemiItalic /Bookman-Light
 /Bookman-LightItalic /Helvetica-Narrow /Helvetica-Narrow-Bold /Helvetica-Narrow-BoldOblique /Helvetica-Narrow-Oblique /NewCenturySchlbk-Roman /NewCenturySchlbk-Bold /NewCenturySchlbk-BoldItalic /NewCenturySchlbk-Italic /Palatino-Bold
 /Palatino-BoldItalic /Palatino-Italic /Palatino-Roman ] {ISOLatin1Encoding reEncode } forall
%%EndProlog
%%BeginSetup
%%EndSetup
newpath  gsave  .25 .25 scale  gsave  0 0 t black[  ] 0 sd 3 lw 1 1 1 c 2268 1972 0 0 bf black 1 1 1 c 1643 1643 230 197 bf black 1643 1643 230 197 bl 1 1 1 c 1643 1643 230 197 bf black 1643 1643 230 197 bl 1 1 1 c 0 1 0.0533333 c 23 26 230 197 bf 23
 26 253 197 bf 23 26 276 197 bf 22 26 299 197 bf 23 26 321 197 bf 23 26 344 197 bf 0.133333 1 0 c 23 26 367 197 bf 23 26 390 197 bf 22 26 413 197 bf 23 26 435 197 bf 23 26 458 197 bf 23 26 481 197 bf 0.413333 1 0 c 23 26 504 197 bf 23 26 527 197 bf
 22 26 550 197 bf 0.6 1 0 c 23 26 572 197 bf 23 26 595 197 bf 23 26 618 197 bf 23 26 641 197 bf 0.88 1 0 c 23 26 664 197 bf 22 26 687 197 bf 1 0.933333 0 c 23 26 709 197 bf 23 26 732 197 bf 1 0.653333 0 c 23 26 755 197 bf 1 0.933333 0 c 23 26 778 197
 bf 1 0.653333 0 c 22 26 801 197 bf 23 26 823 197 bf 23 26 846 197 bf 23 26 869 197 bf 1 0.466667 0 c 23 26 892 197 bf 1 0.653333 0 c 23 26 915 197 bf 22 26 938 197 bf 23 26 1143 197 bf 23 26 1166 197 bf 22 26 1189 197 bf 1 0.933333 0 c 23 26 1211
 197 bf 23 26 1234 197 bf 23 26 1257 197 bf 23 26 1280 197 bf 23 26 1303 197 bf 0.88 1 0 c 22 26 1326 197 bf 23 26 1348 197 bf 23 26 1371 197 bf 0.6 1 0 c 23 26 1394 197 bf 23 26 1417 197 bf 23 26 1440 197 bf 0.413333 1 0 c 22 26 1463 197 bf 23 26
 1485 197 bf 23 26 1508 197 bf 0.133333 1 0 c 23 26 1531 197 bf 23 26 1554 197 bf 22 26 1577 197 bf 23 26 1599 197 bf 23 26 1622 197 bf 23 26 1645 197 bf 23 26 1668 197 bf 0.386667 0 1 c 23 26 1691 197 bf 22 26 1714 197 bf 23 26 1736 197 bf 23 26
 1759 197 bf 23 26 1782 197 bf 23 26 1805 197 bf 23 26 1828 197 bf 22 26 1851 197 bf 0.133333 1 0 c 23 26 230 223 bf 23 26 253 223 bf 0 1 0.0533333 c 23 26 276 223 bf 0.133333 1 0 c 22 26 299 223 bf 23 26 321 223 bf 23 26 344 223 bf 23 26 367 223 bf
 23 26 390 223 bf 0.413333 1 0 c 22 26 413 223 bf 0.133333 1 0 c 23 26 435 223 bf 0.413333 1 0 c 23 26 458 223 bf 23 26 481 223 bf 23 26 504 223 bf 0.6 1 0 c 23 26 527 223 bf 22 26 550 223 bf 23 26 572 223 bf 0.88 1 0 c 23 26 595 223 bf 23 26 618 223
 bf 23 26 641 223 bf 23 26 664 223 bf 1 0.933333 0 c 22 26 687 223 bf 23 26 709 223 bf 23 26 732 223 bf 1 0.653333 0 c 23 26 755 223 bf 1 0.466667 0 c 23 26 778 223 bf 22 26 801 223 bf 23 26 823 223 bf 23 26 846 223 bf 23 26 869 223 bf 23 26 892 223
 bf 23 26 915 223 bf 22 26 938 223 bf 23 26 1143 223 bf 1 0.186667 0 c 23 26 1166 223 bf 1 0.466667 0 c 22 26 1189 223 bf 23 26 1211 223 bf 1 0.653333 0 c 23 26 1234 223 bf 23 26 1257 223 bf 23 26 1280 223 bf 23 26 1303 223 bf 1 0.933333 0 c 22 26
 1326 223 bf 23 26 1348 223 bf 0.88 1 0 c 23 26 1371 223 bf 23 26 1394 223 bf 0.6 1 0 c 23 26 1417 223 bf 23 26 1440 223 bf 22 26 1463 223 bf 23 26 1485 223 bf 0.413333 1 0 c 23 26 1508 223 bf 23 26 1531 223 bf 23 26 1554 223 bf 0.133333 1 0 c 22 26
 1577 223 bf 23 26 1599 223 bf 23 26 1622 223 bf 23 26 1645 223 bf 23 26 1668 223 bf 23 26 1691 223 bf 22 26 1714 223 bf 0 1 0.0533333 c 23 26 1736 223 bf 23 26 1759 223 bf 23 26 1782 223 bf 23 26 1805 223 bf 23 26 1828 223 bf 22 26 1851 223 bf
 0.133333 1 0 c 23 25 230 249 bf 0 1 0.0533333 c 23 25 253 249 bf 23 25 276 249 bf 0.133333 1 0 c 22 25 299 249 bf 23 25 321 249 bf 23 25 344 249 bf 23 25 367 249 bf 23 25 390 249 bf 0.413333 1 0 c 22 25 413 249 bf 23 25 435 249 bf 23 25 458 249 bf
 23 25 481 249 bf 23 25 504 249 bf 0.6 1 0 c 23 25 527 249 bf 22 25 550 249 bf 23 25 572 249 bf 0.88 1 0 c 23 25 595 249 bf 0.6 1 0 c 23 25 618 249 bf 0.88 1 0 c 23 25 641 249 bf 1 0.933333 0 c 23 25 664 249 bf 22 25 687 249 bf 23 25 709 249 bf 1
 0.653333 0 c 23 25 732 249 bf 23 25 755 249 bf 23 25 778 249 bf 1 0.466667 0 c 22 25 801 249 bf 23 25 823 249 bf 23 25 846 249 bf 1 0.186667 0 c 23 25 869 249 bf 1 0.466667 0 c 23 25 892 249 bf 1 0.186667 0 c 23 25 915 249 bf 1 0.466667 0 c 22 25
 938 249 bf 23 25 1143 249 bf 23 25 1166 249 bf 1 0.653333 0 c 22 25 1189 249 bf 23 25 1211 249 bf 23 25 1234 249 bf 23 25 1257 249 bf 1 0.933333 0 c 23 25 1280 249 bf 23 25 1303 249 bf 22 25 1326 249 bf 0.88 1 0 c 23 25 1348 249 bf 23 25 1371 249 bf
 23 25 1394 249 bf 0.6 1 0 c 23 25 1417 249 bf 23 25 1440 249 bf 22 25 1463 249 bf 23 25 1485 249 bf 0.413333 1 0 c 23 25 1508 249 bf 23 25 1531 249 bf 23 25 1554 249 bf 0.133333 1 0 c 22 25 1577 249 bf 23 25 1599 249 bf 23 25 1622 249 bf 23 25 1645
 249 bf 23 25 1668 249 bf 23 25 1691 249 bf 0 1 0.0533333 c 22 25 1714 249 bf 23 25 1736 249 bf 23 25 1759 249 bf 23 25 1782 249 bf 23 25 1805 249 bf 23 25 1828 249 bf 22 25 1851 249 bf 23 26 230 274 bf 23 26 253 274 bf 23 26 276 274 bf 22 26 299 274
 bf 23 26 321 274 bf 23 26 344 274 bf 23 26 367 274 bf 0.133333 1 0 c 23 26 390 274 bf 22 26 413 274 bf 23 26 435 274 bf 23 26 458 274 bf 23 26 481 274 bf 0.413333 1 0 c 23 26 504 274 bf 23 26 527 274 bf 22 26 550 274 bf 0.6 1 0 c 23 26 572 274 bf 23
 26 595 274 bf 23 26 618 274 bf 23 26 641 274 bf 23 26 664 274 bf 0.88 1 0 c 22 26 687 274 bf 23 26 709 274 bf 1 0.933333 0 c 23 26 732 274 bf 23 26 755 274 bf 23 26 778 274 bf 22 26 801 274 bf 23 26 823 274 bf 1 0.653333 0 c 23 26 846 274 bf 23 26
 869 274 bf 23 26 892 274 bf 23 26 915 274 bf 22 26 938 274 bf 23 26 1143 274 bf 23 26 1166 274 bf 1 0.933333 0 c 22 26 1189 274 bf 23 26 1211 274 bf 23 26 1234 274 bf 23 26 1257 274 bf 23 26 1280 274 bf 0.88 1 0 c 23 26 1303 274 bf 22 26 1326 274 bf
 0.6 1 0 c 23 26 1348 274 bf 23 26 1371 274 bf 23 26 1394 274 bf 23 26 1417 274 bf 0.413333 1 0 c 23 26 1440 274 bf 22 26 1463 274 bf 23 26 1485 274 bf 23 26 1508 274 bf 0.133333 1 0 c 23 26 1531 274 bf 23 26 1554 274 bf 22 26 1577 274 bf 0 1
 0.0533333 c 23 26 1599 274 bf 0.133333 1 0 c 23 26 1622 274 bf 0 1 0.0533333 c 23 26 1645 274 bf 23 26 1668 274 bf 23 26 1691 274 bf 22 26 1714 274 bf 23 26 1736 274 bf 0 1 0.333333 c 23 26 1759 274 bf 0 1 0.0533333 c 23 26 1782 274 bf 23 26 1805
 274 bf 23 26 1828 274 bf 22 26 1851 274 bf 23 26 230 300 bf 23 26 253 300 bf 23 26 276 300 bf 22 26 299 300 bf 23 26 321 300 bf 23 26 344 300 bf 0.133333 1 0 c 23 26 367 300 bf 23 26 390 300 bf 22 26 413 300 bf 23 26 435 300 bf 23 26 458 300 bf 23
 26 481 300 bf 0.413333 1 0 c 23 26 504 300 bf 23 26 527 300 bf 22 26 550 300 bf 0.6 1 0 c 23 26 572 300 bf 23 26 595 300 bf 23 26 618 300 bf 23 26 641 300 bf 23 26 664 300 bf 0.88 1 0 c 22 26 687 300 bf 23 26 709 300 bf 1 0.933333 0 c 23 26 732 300
 bf 23 26 755 300 bf 23 26 778 300 bf 22 26 801 300 bf 1 0.653333 0 c 23 26 823 300 bf 23 26 846 300 bf 23 26 869 300 bf 23 26 892 300 bf 23 26 915 300 bf 22 26 938 300 bf 23 26 1143 300 bf 23 26 1166 300 bf 1 0.933333 0 c 22 26 1189 300 bf 23 26
 1211 300 bf 23 26 1234 300 bf 23 26 1257 300 bf 0.88 1 0 c 23 26 1280 300 bf 23 26 1303 300 bf 22 26 1326 300 bf 0.6 1 0 c 23 26 1348 300 bf 23 26 1371 300 bf 23 26 1394 300 bf 23 26 1417 300 bf 0.413333 1 0 c 23 26 1440 300 bf 22 26 1463 300 bf 23
 26 1485 300 bf 23 26 1508 300 bf 0.133333 1 0 c 23 26 1531 300 bf 23 26 1554 300 bf 22 26 1577 300 bf 23 26 1599 300 bf 23 26 1622 300 bf 0 1 0.0533333 c 23 26 1645 300 bf 0.133333 1 0 c 23 26 1668 300 bf 0 1 0.0533333 c 23 26 1691 300 bf 22 26 1714
 300 bf 23 26 1736 300 bf 23 26 1759 300 bf 23 26 1782 300 bf 0 1 0.333333 c 23 26 1805 300 bf 23 26 1828 300 bf 0 1 0.0533333 c 22 26 1851 300 bf 23 25 230 326 bf 23 25 253 326 bf 23 25 276 326 bf 22 25 299 326 bf 0.133333 1 0 c 23 25 321 326 bf 23
 25 344 326 bf 23 25 367 326 bf 23 25 390 326 bf 0.413333 1 0 c 22 25 413 326 bf 23 25 435 326 bf 23 25 458 326 bf 23 25 481 326 bf 23 25 504 326 bf 0.6 1 0 c 23 25 527 326 bf 22 25 550 326 bf 0.88 1 0 c 23 25 572 326 bf 23 25 595 326 bf 23 25 618
 326 bf 23 25 641 326 bf 23 25 664 326 bf 1 0.933333 0 c 22 25 687 326 bf 23 25 709 326 bf 23 25 732 326 bf 1 0.653333 0 c 23 25 755 326 bf 23 25 778 326 bf 1 0.466667 0 c 22 25 801 326 bf 23 25 823 326 bf 23 25 846 326 bf 23 25 869 326 bf 23 25 892
 326 bf 1 0.186667 0 c 23 25 915 326 bf 1 0.466667 0 c 22 25 938 326 bf 23 25 1143 326 bf 23 25 1166 326 bf 22 25 1189 326 bf 1 0.653333 0 c 23 25 1211 326 bf 23 25 1234 326 bf 23 25 1257 326 bf 23 25 1280 326 bf 1 0.933333 0 c 23 25 1303 326 bf 22
 25 1326 326 bf 23 25 1348 326 bf 0.88 1 0 c 23 25 1371 326 bf 23 25 1394 326 bf 0.6 1 0 c 23 25 1417 326 bf 23 25 1440 326 bf 22 25 1463 326 bf 23 25 1485 326 bf 0.413333 1 0 c 23 25 1508 326 bf 23 25 1531 326 bf 23 25 1554 326 bf 0.133333 1 0 c 22
 25 1577 326 bf 23 25 1599 326 bf 23 25 1622 326 bf 0 1 0.0533333 c 23 25 1645 326 bf 0.133333 1 0 c 23 25 1668 326 bf 23 25 1691 326 bf 0 1 0.0533333 c 22 25 1714 326 bf 23 25 1736 326 bf 23 25 1759 326 bf 23 25 1782 326 bf 23 25 1805 326 bf 23 25
 1828 326 bf 22 25 1851 326 bf 23 26 230 351 bf 23 26 253 351 bf 23 26 276 351 bf 22 26 299 351 bf 23 26 321 351 bf 0.133333 1 0 c 23 26 344 351 bf 23 26 367 351 bf 23 26 390 351 bf 0.88 1 0 c 23 26 595 351 bf 23 26 618 351 bf 23 26 641 351 bf 23 26
 664 351 bf 1 0.933333 0 c 22 26 687 351 bf 23 26 709 351 bf 1 0.653333 0 c 23 26 732 351 bf 23 26 755 351 bf 1 0.466667 0 c 23 26 778 351 bf 22 26 801 351 bf 23 26 823 351 bf 23 26 846 351 bf 23 26 869 351 bf 23 26 892 351 bf 1 0.186667 0 c 23 26
 915 351 bf 1 0.466667 0 c 22 26 938 351 bf 23 26 1143 351 bf 23 26 1166 351 bf 1 0.653333 0 c 22 26 1189 351 bf 23 26 1211 351 bf 23 26 1234 351 bf 23 26 1257 351 bf 23 26 1280 351 bf 1 0.933333 0 c 23 26 1303 351 bf 22 26 1326 351 bf 0.88 1 0 c 23
 26 1348 351 bf 23 26 1371 351 bf 0.6 1 0 c 23 26 1394 351 bf 23 26 1417 351 bf 23 26 1440 351 bf 0.413333 1 0 c 22 26 1463 351 bf 23 26 1485 351 bf 0.133333 1 0 c 23 26 1691 351 bf 0 1 0.0533333 c 22 26 1714 351 bf 23 26 1736 351 bf 23 26 1759 351
 bf 23 26 1782 351 bf 23 26 1805 351 bf 23 26 1828 351 bf 22 26 1851 351 bf 23 26 230 377 bf 23 26 253 377 bf 23 26 276 377 bf 22 26 299 377 bf 23 26 321 377 bf 23 26 344 377 bf 0.133333 1 0 c 23 26 367 377 bf 23 26 390 377 bf 22 26 413 377 bf 23 26
 435 377 bf 23 26 458 377 bf 23 26 481 377 bf 23 26 504 377 bf 0.413333 1 0 c 23 26 527 377 bf 22 26 550 377 bf 23 26 572 377 bf 0.6 1 0 c 23 26 595 377 bf 23 26 618 377 bf 23 26 641 377 bf 23 26 664 377 bf 22 26 687 377 bf 0.88 1 0 c 23 26 709 377
 bf 23 26 732 377 bf 23 26 755 377 bf 1 0.933333 0 c 23 26 778 377 bf 22 26 801 377 bf 23 26 823 377 bf 1 0.653333 0 c 23 26 846 377 bf 23 26 869 377 bf 23 26 892 377 bf 23 26 915 377 bf 22 26 938 377 bf 23 26 1143 377 bf 1 0.933333 0 c 23 26 1166
 377 bf 22 26 1189 377 bf 23 26 1211 377 bf 0.88 1 0 c 23 26 1234 377 bf 1 0.933333 0 c 23 26 1257 377 bf 23 26 1280 377 bf 0.88 1 0 c 23 26 1303 377 bf 22 26 1326 377 bf 0.6 1 0 c 23 26 1348 377 bf 23 26 1371 377 bf 0.413333 1 0 c 23 26 1394 377 bf
 0.6 1 0 c 23 26 1417 377 bf 0.413333 1 0 c 23 26 1440 377 bf 22 26 1463 377 bf 23 26 1485 377 bf 23 26 1508 377 bf 0.133333 1 0 c 23 26 1531 377 bf 23 26 1554 377 bf 22 26 1577 377 bf 0 1 0.0533333 c 23 26 1599 377 bf 23 26 1622 377 bf 23 26 1645
 377 bf 23 26 1668 377 bf 23 26 1691 377 bf 22 26 1714 377 bf 23 26 1736 377 bf 23 26 1759 377 bf 0 1 0.333333 c 23 26 1782 377 bf 23 26 1805 377 bf 0 1 0.0533333 c 23 26 1828 377 bf 22 26 1851 377 bf 23 25 230 403 bf 23 25 253 403 bf 23 25 276 403
 bf 22 25 299 403 bf 23 25 321 403 bf 0.133333 1 0 c 23 25 344 403 bf 0 1 0.0533333 c 23 25 367 403 bf 0.133333 1 0 c 23 25 390 403 bf 22 25 413 403 bf 23 25 435 403 bf 23 25 458 403 bf 23 25 481 403 bf 0.413333 1 0 c 23 25 504 403 bf 23 25 527 403
 bf 22 25 550 403 bf 0.6 1 0 c 23 25 572 403 bf 23 25 595 403 bf 23 25 618 403 bf 23 25 641 403 bf 0.88 1 0 c 23 25 664 403 bf 22 25 687 403 bf 23 25 709 403 bf 23 25 732 403 bf 1 0.933333 0 c 23 25 755 403 bf 23 25 778 403 bf 1 0.653333 0 c 22 25
 801 403 bf 23 25 823 403 bf 23 25 846 403 bf 23 25 869 403 bf 23 25 892 403 bf 23 25 915 403 bf 22 25 938 403 bf 23 25 1143 403 bf 23 25 1166 403 bf 22 25 1189 403 bf 1 0.933333 0 c 23 25 1211 403 bf 23 25 1234 403 bf 23 25 1257 403 bf 0.88 1 0 c 23
 25 1280 403 bf 23 25 1303 403 bf 22 25 1326 403 bf 0.6 1 0 c 23 25 1348 403 bf 23 25 1371 403 bf 23 25 1394 403 bf 23 25 1417 403 bf 0.413333 1 0 c 23 25 1440 403 bf 22 25 1463 403 bf 23 25 1485 403 bf 23 25 1508 403 bf 0.133333 1 0 c 23 25 1531 403
 bf 23 25 1554 403 bf 22 25 1577 403 bf 23 25 1599 403 bf 23 25 1622 403 bf 0 1 0.0533333 c 23 25 1645 403 bf 23 25 1668 403 bf 23 25 1691 403 bf 22 25 1714 403 bf 23 25 1736 403 bf 23 25 1759 403 bf 23 25 1782 403 bf 0 1 0.333333 c 23 25 1805 403 bf
 0 1 0.0533333 c 23 25 1828 403 bf 22 25 1851 403 bf 23 26 230 428 bf 23 26 253 428 bf 23 26 276 428 bf 22 26 299 428 bf 0.133333 1 0 c 23 26 321 428 bf 0 1 0.0533333 c 23 26 344 428 bf 0.133333 1 0 c 23 26 367 428 bf 23 26 390 428 bf 22 26 413 428
 bf 0.413333 1 0 c 23 26 435 428 bf 23 26 458 428 bf 23 26 481 428 bf 23 26 504 428 bf 0.6 1 0 c 23 26 527 428 bf 22 26 550 428 bf 23 26 572 428 bf 23 26 595 428 bf 0.88 1 0 c 23 26 618 428 bf 23 26 641 428 bf 23 26 664 428 bf 1 0.933333 0 c 22 26
 687 428 bf 23 26 709 428 bf 23 26 732 428 bf 1 0.653333 0 c 23 26 755 428 bf 23 26 778 428 bf 22 26 801 428 bf 1 0.466667 0 c 23 26 823 428 bf 23 26 846 428 bf 23 26 869 428 bf 23 26 892 428 bf 1 0.186667 0 c 23 26 915 428 bf 1 0.466667 0 c 22 26
 938 428 bf 23 26 1143 428 bf 23 26 1166 428 bf 22 26 1189 428 bf 1 0.653333 0 c 23 26 1211 428 bf 23 26 1234 428 bf 23 26 1257 428 bf 23 26 1280 428 bf 1 0.933333 0 c 23 26 1303 428 bf 22 26 1326 428 bf 0.88 1 0 c 23 26 1348 428 bf 23 26 1371 428 bf
 0.6 1 0 c 23 26 1394 428 bf 23 26 1417 428 bf 23 26 1440 428 bf 22 26 1463 428 bf 0.413333 1 0 c 23 26 1485 428 bf 23 26 1508 428 bf 23 26 1531 428 bf 0.133333 1 0 c 23 26 1554 428 bf 22 26 1577 428 bf 23 26 1599 428 bf 23 26 1622 428 bf 23 26 1645
 428 bf 23 26 1668 428 bf 23 26 1691 428 bf 0 1 0.0533333 c 22 26 1714 428 bf 23 26 1736 428 bf 23 26 1759 428 bf 23 26 1782 428 bf 23 26 1805 428 bf 23 26 1828 428 bf 22 26 1851 428 bf 0.133333 1 0 c 23 26 230 454 bf 0 1 0.0533333 c 23 26 253 454 bf
 23 26 276 454 bf 22 26 299 454 bf 0.133333 1 0 c 23 26 321 454 bf 23 26 344 454 bf 23 26 367 454 bf 23 26 390 454 bf 0.413333 1 0 c 22 26 413 454 bf 0.133333 1 0 c 23 26 435 454 bf 0.413333 1 0 c 23 26 458 454 bf 23 26 481 454 bf 23 26 504 454 bf 23
 26 527 454 bf 0.6 1 0 c 22 26 550 454 bf 23 26 572 454 bf 23 26 595 454 bf 0.88 1 0 c 23 26 618 454 bf 23 26 641 454 bf 1 0.933333 0 c 23 26 664 454 bf 22 26 687 454 bf 23 26 709 454 bf 1 0.653333 0 c 23 26 732 454 bf 23 26 755 454 bf 23 26 778 454
 bf 1 0.466667 0 c 22 26 801 454 bf 23 26 823 454 bf 23 26 846 454 bf 23 26 869 454 bf 23 26 892 454 bf 23 26 915 454 bf 22 26 938 454 bf 23 26 1143 454 bf 23 26 1166 454 bf 22 26 1189 454 bf 1 0.653333 0 c 23 26 1211 454 bf 23 26 1234 454 bf 23 26
 1257 454 bf 1 0.933333 0 c 23 26 1280 454 bf 23 26 1303 454 bf 22 26 1326 454 bf 0.88 1 0 c 23 26 1348 454 bf 23 26 1371 454 bf 0.6 1 0 c 23 26 1394 454 bf 23 26 1417 454 bf 23 26 1440 454 bf 0.413333 1 0 c 22 26 1463 454 bf 23 26 1485 454 bf 23 26
 1508 454 bf 23 26 1531 454 bf 0.133333 1 0 c 23 26 1554 454 bf 22 26 1577 454 bf 23 26 1599 454 bf 23 26 1622 454 bf 23 26 1645 454 bf 23 26 1668 454 bf 23 26 1691 454 bf 0 1 0.0533333 c 22 26 1714 454 bf 23 26 1736 454 bf 23 26 1759 454 bf 23 26
 1782 454 bf 23 26 1805 454 bf 23 26 1828 454 bf 22 26 1851 454 bf 23 25 230 480 bf 23 25 253 480 bf 23 25 276 480 bf 22 25 299 480 bf 23 25 321 480 bf 23 25 344 480 bf 23 25 367 480 bf 0.133333 1 0 c 23 25 390 480 bf 22 25 413 480 bf 23 25 435 480
 bf 23 25 458 480 bf 23 25 481 480 bf 23 25 504 480 bf 0.413333 1 0 c 23 25 527 480 bf 22 25 550 480 bf 23 25 572 480 bf 0.6 1 0 c 23 25 595 480 bf 23 25 618 480 bf 23 25 641 480 bf 23 25 664 480 bf 0.88 1 0 c 22 25 687 480 bf 23 25 709 480 bf 23 25
 732 480 bf 1 0.933333 0 c 23 25 755 480 bf 23 25 778 480 bf 22 25 801 480 bf 1 0.653333 0 c 23 25 823 480 bf 23 25 846 480 bf 23 25 869 480 bf 23 25 892 480 bf 23 25 915 480 bf 22 25 938 480 bf 23 25 1143 480 bf 23 25 1166 480 bf 22 25 1189 480 bf 1
 0.933333 0 c 23 25 1211 480 bf 0.88 1 0 c 23 25 1234 480 bf 1 0.933333 0 c 23 25 1257 480 bf 0.88 1 0 c 23 25 1280 480 bf 23 25 1303 480 bf 22 25 1326 480 bf 23 25 1348 480 bf 0.6 1 0 c 23 25 1371 480 bf 23 25 1394 480 bf 23 25 1417 480 bf 0.413333
 1 0 c 23 25 1440 480 bf 22 25 1463 480 bf 23 25 1485 480 bf 23 25 1508 480 bf 0.133333 1 0 c 23 25 1531 480 bf 23 25 1554 480 bf 22 25 1577 480 bf 0 1 0.0533333 c 23 25 1599 480 bf 0.133333 1 0 c 23 25 1622 480 bf 0 1 0.0533333 c 23 25 1645 480 bf
 23 25 1668 480 bf 23 25 1691 480 bf 22 25 1714 480 bf 23 25 1736 480 bf 0 1 0.333333 c 23 25 1759 480 bf 0 1 0.0533333 c 23 25 1782 480 bf 0 1 0.333333 c 23 25 1805 480 bf 23 25 1828 480 bf 0 1 0.0533333 c 22 25 1851 480 bf 23 26 230 505 bf 23 26
 253 505 bf 23 26 276 505 bf 22 26 299 505 bf 23 26 321 505 bf 0.133333 1 0 c 23 26 344 505 bf 0 1 0.0533333 c 23 26 367 505 bf 0.133333 1 0 c 23 26 390 505 bf 22 26 413 505 bf 23 26 435 505 bf 23 26 458 505 bf 23 26 481 505 bf 23 26 504 505 bf
 0.413333 1 0 c 23 26 527 505 bf 22 26 550 505 bf 23 26 572 505 bf 0.6 1 0 c 23 26 595 505 bf 23 26 618 505 bf 23 26 641 505 bf 0.88 1 0 c 23 26 664 505 bf 22 26 687 505 bf 23 26 709 505 bf 23 26 732 505 bf 1 0.933333 0 c 23 26 755 505 bf 23 26 778
 505 bf 1 0.653333 0 c 22 26 801 505 bf 1 0.933333 0 c 23 26 823 505 bf 1 0.653333 0 c 23 26 846 505 bf 23 26 869 505 bf 23 26 892 505 bf 1 0.466667 0 c 23 26 915 505 bf 1 0.653333 0 c 22 26 938 505 bf 23 26 1143 505 bf 23 26 1166 505 bf 22 26 1189
 505 bf 1 0.933333 0 c 23 26 1211 505 bf 23 26 1234 505 bf 23 26 1257 505 bf 0.88 1 0 c 23 26 1280 505 bf 23 26 1303 505 bf 22 26 1326 505 bf 23 26 1348 505 bf 0.6 1 0 c 23 26 1371 505 bf 23 26 1394 505 bf 23 26 1417 505 bf 0.413333 1 0 c 23 26 1440
 505 bf 22 26 1463 505 bf 23 26 1485 505 bf 23 26 1508 505 bf 23 26 1531 505 bf 0.133333 1 0 c 23 26 1554 505 bf 0 1 0.0533333 c 22 26 1577 505 bf 0.133333 1 0 c 23 26 1599 505 bf 0 1 0.0533333 c 23 26 1622 505 bf 23 26 1645 505 bf 0.133333 1 0 c 23
 26 1668 505 bf 0 1 0.0533333 c 23 26 1691 505 bf 22 26 1714 505 bf 23 26 1736 505 bf 23 26 1759 505 bf 23 26 1782 505 bf 23 26 1805 505 bf 0 1 0.333333 c 23 26 1828 505 bf 0 1 0.0533333 c 22 26 1851 505 bf 0.133333 1 0 c 23 26 230 531 bf 0 1
 0.0533333 c 23 26 253 531 bf 23 26 276 531 bf 22 26 299 531 bf 23 26 321 531 bf 0.133333 1 0 c 23 26 344 531 bf 23 26 367 531 bf 0.413333 1 0 c 23 26 390 531 bf 0.133333 1 0 c 22 26 413 531 bf 0.413333 1 0 c 23 26 435 531 bf 23 26 458 531 bf 23 26
 481 531 bf 23 26 504 531 bf 23 26 527 531 bf 0.6 1 0 c 22 26 550 531 bf 23 26 572 531 bf 0.88 1 0 c 23 26 595 531 bf 0.6 1 0 c 23 26 618 531 bf 0.88 1 0 c 23 26 641 531 bf 1 0.933333 0 c 23 26 664 531 bf 22 26 687 531 bf 1 0.653333 0 c 23 26 709 531
 bf 1 0.933333 0 c 23 26 732 531 bf 1 0.653333 0 c 23 26 755 531 bf 23 26 778 531 bf 1 0.466667 0 c 22 26 801 531 bf 23 26 823 531 bf 23 26 846 531 bf 23 26 869 531 bf 23 26 892 531 bf 23 26 915 531 bf 1 0.186667 0 c 22 26 938 531 bf 1 0.466667 0 c
 23 26 1143 531 bf 23 26 1166 531 bf 22 26 1189 531 bf 23 26 1211 531 bf 1 0.653333 0 c 23 26 1234 531 bf 23 26 1257 531 bf 1 0.933333 0 c 23 26 1280 531 bf 23 26 1303 531 bf 22 26 1326 531 bf 0.88 1 0 c 23 26 1348 531 bf 23 26 1371 531 bf 23 26 1394
 531 bf 0.6 1 0 c 23 26 1417 531 bf 23 26 1440 531 bf 22 26 1463 531 bf 23 26 1485 531 bf 23 26 1508 531 bf 0.413333 1 0 c 23 26 1531 531 bf 0.133333 1 0 c 23 26 1554 531 bf 22 26 1577 531 bf 23 26 1599 531 bf 23 26 1622 531 bf 23 26 1645 531 bf 23
 26 1668 531 bf 23 26 1691 531 bf 22 26 1714 531 bf 0 1 0.0533333 c 23 26 1736 531 bf 23 26 1759 531 bf 23 26 1782 531 bf 23 26 1805 531 bf 23 26 1828 531 bf 22 26 1851 531 bf 0.133333 1 0 c 23 25 230 557 bf 23 25 253 557 bf 23 25 276 557 bf 0 1
 0.0533333 c 22 25 299 557 bf 0.133333 1 0 c 23 25 321 557 bf 23 25 344 557 bf 23 25 367 557 bf 23 25 390 557 bf 0.413333 1 0 c 22 25 413 557 bf 0.133333 1 0 c 23 25 435 557 bf 23 25 458 557 bf 0.413333 1 0 c 23 25 481 557 bf 23 25 504 557 bf 23 25
 527 557 bf 0.6 1 0 c 22 25 550 557 bf 23 25 572 557 bf 0.88 1 0 c 23 25 595 557 bf 23 25 618 557 bf 23 25 641 557 bf 1 0.933333 0 c 23 25 664 557 bf 22 25 687 557 bf 23 25 709 557 bf 1 0.653333 0 c 23 25 732 557 bf 23 25 755 557 bf 1 0.466667 0 c 23
 25 778 557 bf 22 25 801 557 bf 23 25 823 557 bf 23 25 846 557 bf 23 25 869 557 bf 1 0.186667 0 c 23 25 892 557 bf 1 0.466667 0 c 23 25 915 557 bf 1 0.186667 0 c 22 25 938 557 bf 23 25 1143 557 bf 1 0.466667 0 c 23 25 1166 557 bf 22 25 1189 557 bf 1
 0.653333 0 c 23 25 1211 557 bf 23 25 1234 557 bf 23 25 1257 557 bf 1 0.933333 0 c 23 25 1280 557 bf 1 0.653333 0 c 23 25 1303 557 bf 1 0.933333 0 c 22 25 1326 557 bf 0.88 1 0 c 23 25 1348 557 bf 23 25 1371 557 bf 23 25 1394 557 bf 0.6 1 0 c 23 25
 1417 557 bf 23 25 1440 557 bf 22 25 1463 557 bf 23 25 1485 557 bf 0.413333 1 0 c 23 25 1508 557 bf 23 25 1531 557 bf 23 25 1554 557 bf 22 25 1577 557 bf 0.133333 1 0 c 23 25 1599 557 bf 23 25 1622 557 bf 23 25 1645 557 bf 23 25 1668 557 bf 23 25
 1691 557 bf 0 1 0.0533333 c 22 25 1714 557 bf 23 25 1736 557 bf 23 25 1759 557 bf 23 25 1782 557 bf 23 25 1805 557 bf 23 25 1828 557 bf 22 25 1851 557 bf 23 26 230 582 bf 23 26 253 582 bf 23 26 276 582 bf 22 26 299 582 bf 23 26 321 582 bf 23 26 344
 582 bf 0.133333 1 0 c 23 26 367 582 bf 0.386667 0 1 c 23 26 390 582 bf 0.133333 1 0 c 22 26 413 582 bf 23 26 435 582 bf 23 26 458 582 bf 23 26 481 582 bf 0.413333 1 0 c 23 26 504 582 bf 23 26 527 582 bf 22 26 550 582 bf 23 26 572 582 bf 0.6 1 0 c 23
 26 595 582 bf 23 26 618 582 bf 23 26 641 582 bf 0.88 1 0 c 23 26 664 582 bf 22 26 687 582 bf 23 26 709 582 bf 1 0.933333 0 c 23 26 732 582 bf 23 26 755 582 bf 23 26 778 582 bf 1 0.653333 0 c 22 26 801 582 bf 23 26 823 582 bf 23 26 846 582 bf 23 26
 869 582 bf 23 26 892 582 bf 23 26 915 582 bf 22 26 938 582 bf 23 26 1143 582 bf 23 26 1166 582 bf 1 0.933333 0 c 22 26 1189 582 bf 23 26 1211 582 bf 23 26 1234 582 bf 23 26 1257 582 bf 23 26 1280 582 bf 0.88 1 0 c 23 26 1303 582 bf 22 26 1326 582 bf
 0.6 1 0 c 23 26 1348 582 bf 23 26 1371 582 bf 23 26 1394 582 bf 23 26 1417 582 bf 0.413333 1 0 c 23 26 1440 582 bf 22 26 1463 582 bf 23 26 1485 582 bf 23 26 1508 582 bf 0.133333 1 0 c 23 26 1531 582 bf 23 26 1554 582 bf 22 26 1577 582 bf 23 26 1599
 582 bf 23 26 1622 582 bf 0 1 0.0533333 c 23 26 1645 582 bf 23 26 1668 582 bf 23 26 1691 582 bf 22 26 1714 582 bf 23 26 1736 582 bf 23 26 1759 582 bf 23 26 1782 582 bf 0 1 0.333333 c 23 26 1805 582 bf 23 26 1828 582 bf 22 26 1851 582 bf 0 1 0.0533333
 c 23 26 230 608 bf 23 26 253 608 bf 23 26 276 608 bf 22 26 299 608 bf 23 26 321 608 bf 23 26 344 608 bf 0.133333 1 0 c 23 26 367 608 bf 23 26 390 608 bf 22 26 413 608 bf 23 26 435 608 bf 23 26 458 608 bf 0.413333 1 0 c 23 26 481 608 bf 23 26 504 608
 bf 23 26 527 608 bf 22 26 550 608 bf 0.6 1 0 c 23 26 572 608 bf 23 26 595 608 bf 23 26 618 608 bf 23 26 641 608 bf 0.88 1 0 c 23 26 664 608 bf 22 26 687 608 bf 1 0.933333 0 c 23 26 709 608 bf 23 26 732 608 bf 23 26 755 608 bf 23 26 778 608 bf 1
 0.653333 0 c 22 26 801 608 bf 23 26 823 608 bf 23 26 846 608 bf 23 26 869 608 bf 23 26 892 608 bf 23 26 915 608 bf 22 26 938 608 bf 23 26 1143 608 bf 23 26 1166 608 bf 22 26 1189 608 bf 23 26 1211 608 bf 23 26 1257 608 bf 1 0.933333 0 c 23 26 1280
 608 bf 23 26 1303 608 bf 0.88 1 0 c 22 26 1326 608 bf 0.6 1 0 c 23 26 1348 608 bf 23 26 1371 608 bf 23 26 1394 608 bf 23 26 1417 608 bf 23 26 1440 608 bf 0.413333 1 0 c 22 26 1463 608 bf 23 26 1485 608 bf 23 26 1508 608 bf 0.133333 1 0 c 23 26 1531
 608 bf 23 26 1554 608 bf 22 26 1577 608 bf 23 26 1599 608 bf 23 26 1622 608 bf 0 1 0.0533333 c 23 26 1645 608 bf 23 26 1668 608 bf 0.133333 1 0 c 23 26 1691 608 bf 0 1 0.0533333 c 22 26 1714 608 bf 23 26 1736 608 bf 23 26 1759 608 bf 23 26 1782 608
 bf 23 26 1805 608 bf 0 1 0.333333 c 23 26 1828 608 bf 0 1 0.0533333 c 22 26 1851 608 bf 23 25 230 634 bf 23 25 253 634 bf 23 25 276 634 bf 0.133333 1 0 c 22 25 299 634 bf 23 25 321 634 bf 23 25 344 634 bf 23 25 367 634 bf 23 25 390 634 bf 0.413333 1
 0 c 22 25 413 634 bf 23 25 435 634 bf 23 25 458 634 bf 23 25 481 634 bf 23 25 504 634 bf 0.6 1 0 c 23 25 527 634 bf 22 25 550 634 bf 23 25 572 634 bf 1 0.933333 0 c 23 25 595 634 bf 0.88 1 0 c 23 25 618 634 bf 23 25 641 634 bf 1 0.933333 0 c 23 25
 664 634 bf 22 25 687 634 bf 1 0.653333 0 c 23 25 709 634 bf 23 25 732 634 bf 23 25 755 634 bf 1 0.466667 0 c 23 25 778 634 bf 22 25 801 634 bf 23 25 823 634 bf 23 25 846 634 bf 1 0.186667 0 c 23 25 869 634 bf 23 25 892 634 bf 23 25 915 634 bf 22 25
 938 634 bf 23 25 1143 634 bf 23 25 1166 634 bf 1 0.466667 0 c 22 25 1189 634 bf 23 25 1211 634 bf 23 25 1234 634 bf 1 0.653333 0 c 23 25 1257 634 bf 23 25 1280 634 bf 23 25 1303 634 bf 1 0.933333 0 c 22 25 1326 634 bf 23 25 1348 634 bf 23 25 1371
 634 bf 0.88 1 0 c 23 25 1394 634 bf 23 25 1417 634 bf 0.6 1 0 c 23 25 1440 634 bf 22 25 1463 634 bf 23 25 1485 634 bf 0.413333 1 0 c 23 25 1508 634 bf 23 25 1531 634 bf 23 25 1554 634 bf 0.133333 1 0 c 22 25 1577 634 bf 23 25 1599 634 bf 23 25 1622
 634 bf 23 25 1645 634 bf 23 25 1668 634 bf 23 25 1691 634 bf 22 25 1714 634 bf 0 1 0.0533333 c 23 25 1736 634 bf 23 25 1759 634 bf 23 25 1782 634 bf 23 25 1805 634 bf 23 25 1828 634 bf 22 25 1851 634 bf 0.133333 1 0 c 23 26 230 659 bf 23 26 253 659
 bf 23 26 276 659 bf 22 26 299 659 bf 23 26 321 659 bf 23 26 344 659 bf 23 26 367 659 bf 0.413333 1 0 c 23 26 390 659 bf 22 26 413 659 bf 23 26 435 659 bf 23 26 458 659 bf 23 26 481 659 bf 0.6 1 0 c 23 26 504 659 bf 23 26 527 659 bf 22 26 550 659 bf
 23 26 572 659 bf 0.88 1 0 c 23 26 595 659 bf 23 26 618 659 bf 23 26 641 659 bf 1 0.933333 0 c 23 26 664 659 bf 1 0.653333 0 c 22 26 687 659 bf 1 0.933333 0 c 23 26 709 659 bf 1 0.653333 0 c 23 26 732 659 bf 23 26 755 659 bf 1 0.466667 0 c 23 26 778
 659 bf 22 26 801 659 bf 23 26 823 659 bf 1 0.186667 0 c 23 26 846 659 bf 23 26 869 659 bf 1 0.466667 0 c 23 26 892 659 bf 1 0.186667 0 c 23 26 915 659 bf 22 26 938 659 bf 23 26 1143 659 bf 23 26 1166 659 bf 1 0.466667 0 c 22 26 1189 659 bf 23 26
 1211 659 bf 23 26 1234 659 bf 1 0.653333 0 c 23 26 1257 659 bf 23 26 1280 659 bf 23 26 1303 659 bf 1 0.933333 0 c 22 26 1326 659 bf 23 26 1348 659 bf 23 26 1371 659 bf 0.88 1 0 c 23 26 1394 659 bf 23 26 1417 659 bf 0.6 1 0 c 23 26 1440 659 bf 22 26
 1463 659 bf 23 26 1485 659 bf 23 26 1508 659 bf 0.413333 1 0 c 23 26 1531 659 bf 23 26 1554 659 bf 22 26 1577 659 bf 0.133333 1 0 c 23 26 1599 659 bf 23 26 1622 659 bf 23 26 1645 659 bf 23 26 1668 659 bf 23 26 1691 659 bf 22 26 1714 659 bf 0 1
 0.0533333 c 23 26 1736 659 bf 23 26 1759 659 bf 23 26 1782 659 bf 23 26 1805 659 bf 23 26 1828 659 bf 22 26 1851 659 bf 1 0.653333 0 c 23 26 1143 685 bf 23 26 1166 685 bf 22 26 1189 685 bf 23 26 1211 685 bf 1 0.933333 0 c 23 26 1234 685 bf 23 26
 1257 685 bf 0.88 1 0 c 23 26 1280 685 bf 23 26 1303 685 bf 22 26 1326 685 bf 0.6 1 0 c 23 26 1348 685 bf 23 26 1371 685 bf 23 26 1394 685 bf 23 26 1417 685 bf 0.413333 1 0 c 23 26 1440 685 bf 22 26 1463 685 bf 23 26 1485 685 bf 23 26 1508 685 bf 23
 26 1531 685 bf 0.133333 1 0 c 23 26 1554 685 bf 22 26 1577 685 bf 23 26 1599 685 bf 0 1 0.0533333 c 23 26 1622 685 bf 0.133333 1 0 c 23 26 1645 685 bf 23 26 1668 685 bf 0 1 0.0533333 c 23 26 1691 685 bf 22 26 1714 685 bf 23 26 1736 685 bf 23 26 1759
 685 bf 0 1 0.333333 c 23 26 1782 685 bf 23 26 1805 685 bf 0 1 0.0533333 c 23 26 1828 685 bf 22 26 1851 685 bf 1 0.186667 0 c 23 25 1143 711 bf 1 0.653333 0 c 23 25 1166 711 bf 22 25 1189 711 bf 23 25 1211 711 bf 23 25 1234 711 bf 23 25 1257 711 bf 1
 0.933333 0 c 23 25 1280 711 bf 23 25 1303 711 bf 0.88 1 0 c 22 25 1326 711 bf 23 25 1348 711 bf 23 25 1371 711 bf 0.6 1 0 c 23 25 1394 711 bf 23 25 1417 711 bf 23 25 1440 711 bf 0.413333 1 0 c 22 25 1463 711 bf 23 25 1485 711 bf 23 25 1508 711 bf 23
 25 1531 711 bf 0.133333 1 0 c 23 25 1554 711 bf 22 25 1577 711 bf 23 25 1599 711 bf 23 25 1622 711 bf 23 25 1645 711 bf 23 25 1668 711 bf 23 25 1691 711 bf 0 1 0.0533333 c 22 25 1714 711 bf 23 25 1736 711 bf 23 25 1759 711 bf 23 25 1782 711 bf 23 25
 1805 711 bf 0 1 0.333333 c 23 25 1828 711 bf 0 1 0.0533333 c 22 25 1851 711 bf 1 0.186667 0 c 23 26 1143 736 bf 23 26 1166 736 bf 22 26 1189 736 bf 1 0.466667 0 c 23 26 1211 736 bf 23 26 1234 736 bf 23 26 1257 736 bf 1 0.653333 0 c 23 26 1280 736 bf
 23 26 1303 736 bf 22 26 1326 736 bf 1 0.933333 0 c 23 26 1348 736 bf 23 26 1371 736 bf 0.88 1 0 c 23 26 1394 736 bf 23 26 1417 736 bf 23 26 1440 736 bf 0.6 1 0 c 22 26 1463 736 bf 23 26 1485 736 bf 23 26 1508 736 bf 0.413333 1 0 c 23 26 1531 736 bf
 23 26 1554 736 bf 22 26 1577 736 bf 23 26 1599 736 bf 0.133333 1 0 c 23 26 1622 736 bf 23 26 1645 736 bf 23 26 1668 736 bf 23 26 1691 736 bf 22 26 1714 736 bf 0 1 0.0533333 c 23 26 1736 736 bf 23 26 1759 736 bf 23 26 1782 736 bf 0.133333 1 0 c 23 26
 1805 736 bf 0 1 0.0533333 c 23 26 1828 736 bf 0.133333 1 0 c 22 26 1851 736 bf 1 0.653333 0 c 22 26 1326 762 bf 1 0.933333 0 c 23 26 1348 762 bf 23 26 1371 762 bf 0.88 1 0 c 23 26 1394 762 bf 23 26 1417 762 bf 0.6 1 0 c 23 26 1440 762 bf 22 26 1463
 762 bf 23 26 1485 762 bf 23 26 1508 762 bf 0.413333 1 0 c 23 26 1531 762 bf 23 26 1554 762 bf 22 26 1577 762 bf 23 26 1599 762 bf 0.133333 1 0 c 23 26 1622 762 bf 23 26 1645 762 bf 23 26 1668 762 bf 23 26 1691 762 bf 22 26 1714 762 bf 23 26 1736 762
 bf 0 1 0.0533333 c 23 26 1759 762 bf 23 26 1782 762 bf 23 26 1805 762 bf 23 26 1828 762 bf 0.133333 1 0 c 22 26 1851 762 bf 23 25 230 788 bf 0 1 0.0533333 c 23 25 253 788 bf 23 25 276 788 bf 22 25 299 788 bf 23 25 321 788 bf 23 25 344 788 bf
 0.133333 1 0 c 23 25 367 788 bf 23 25 390 788 bf 22 25 413 788 bf 23 25 435 788 bf 23 25 458 788 bf 23 25 481 788 bf 0.413333 1 0 c 23 25 504 788 bf 23 25 527 788 bf 22 25 550 788 bf 0.6 1 0 c 23 25 572 788 bf 23 25 595 788 bf 23 25 618 788 bf 0.88
 1 0 c 23 25 641 788 bf 23 25 664 788 bf 22 25 687 788 bf 1 0.933333 0 c 23 25 709 788 bf 23 25 732 788 bf 1 0.653333 0 c 23 25 755 788 bf 1 0.933333 0 c 23 25 778 788 bf 1 0.653333 0 c 22 25 801 788 bf 23 25 823 788 bf 1 0.466667 0 c 23 25 846 788
 bf 23 25 869 788 bf 1 0.653333 0 c 23 25 892 788 bf 1 0.466667 0 c 23 25 915 788 bf 22 25 938 788 bf 23 25 1143 788 bf 1 0.653333 0 c 23 25 1166 788 bf 22 25 1189 788 bf 23 25 1211 788 bf 23 25 1234 788 bf 1 0.933333 0 c 23 25 1257 788 bf 23 25 1280
 788 bf 23 25 1303 788 bf 22 25 1326 788 bf 0.88 1 0 c 23 25 1348 788 bf 23 25 1371 788 bf 23 25 1394 788 bf 0.6 1 0 c 23 25 1417 788 bf 0.413333 1 0 c 23 25 1440 788 bf 22 25 1463 788 bf 23 25 1485 788 bf 23 25 1508 788 bf 23 25 1531 788 bf 0.133333
 1 0 c 23 25 1554 788 bf 22 25 1577 788 bf 23 25 1599 788 bf 23 25 1622 788 bf 23 25 1645 788 bf 23 25 1668 788 bf 23 25 1691 788 bf 0 1 0.0533333 c 22 25 1714 788 bf 23 25 1736 788 bf 23 25 1759 788 bf 23 25 1782 788 bf 0 1 0.333333 c 23 25 1805 788
 bf 0 1 0.0533333 c 23 25 1828 788 bf 22 25 1851 788 bf 0.133333 1 0 c 23 26 230 813 bf 0 1 0.0533333 c 23 26 253 813 bf 23 26 276 813 bf 0.133333 1 0 c 22 26 299 813 bf 0.413333 1 0 c 23 26 321 813 bf 0.133333 1 0 c 23 26 344 813 bf 23 26 367 813 bf
 0.413333 1 0 c 23 26 390 813 bf 22 26 413 813 bf 23 26 435 813 bf 23 26 458 813 bf 23 26 481 813 bf 23 26 504 813 bf 0.6 1 0 c 23 26 527 813 bf 22 26 550 813 bf 23 26 572 813 bf 0.88 1 0 c 23 26 595 813 bf 23 26 618 813 bf 23 26 641 813 bf 23 26 664
 813 bf 1 0.933333 0 c 22 26 687 813 bf 23 26 709 813 bf 1 0.653333 0 c 23 26 732 813 bf 23 26 755 813 bf 23 26 778 813 bf 1 0.466667 0 c 22 26 801 813 bf 23 26 823 813 bf 23 26 846 813 bf 23 26 869 813 bf 23 26 892 813 bf 23 26 915 813 bf 22 26 938
 813 bf 23 26 1143 813 bf 23 26 1166 813 bf 22 26 1189 813 bf 1 0.653333 0 c 23 26 1211 813 bf 23 26 1234 813 bf 23 26 1257 813 bf 1 0.933333 0 c 23 26 1280 813 bf 23 26 1303 813 bf 22 26 1326 813 bf 23 26 1348 813 bf 0.88 1 0 c 23 26 1371 813 bf 0.6
 1 0 c 23 26 1394 813 bf 23 26 1417 813 bf 23 26 1440 813 bf 22 26 1463 813 bf 23 26 1485 813 bf 0.413333 1 0 c 23 26 1508 813 bf 23 26 1531 813 bf 0.133333 1 0 c 23 26 1554 813 bf 22 26 1577 813 bf 23 26 1599 813 bf 23 26 1622 813 bf 23 26 1645 813
 bf 23 26 1668 813 bf 23 26 1691 813 bf 22 26 1714 813 bf 23 26 1736 813 bf 0 1 0.0533333 c 23 26 1759 813 bf 23 26 1782 813 bf 23 26 1805 813 bf 0 1 0.333333 c 23 26 1828 813 bf 0 1 0.0533333 c 22 26 1851 813 bf 0.133333 1 0 c 23 26 230 839 bf 0 1
 0.0533333 c 23 26 253 839 bf 0.133333 1 0 c 23 26 276 839 bf 22 26 299 839 bf 23 26 321 839 bf 23 26 344 839 bf 23 26 367 839 bf 0.413333 1 0 c 23 26 390 839 bf 22 26 413 839 bf 23 26 435 839 bf 23 26 458 839 bf 23 26 481 839 bf 0.6 1 0 c 23 26 504
 839 bf 23 26 527 839 bf 22 26 550 839 bf 0.88 1 0 c 23 26 572 839 bf 23 26 595 839 bf 23 26 618 839 bf 1 0.933333 0 c 23 26 641 839 bf 23 26 664 839 bf 22 26 687 839 bf 1 0.653333 0 c 23 26 709 839 bf 23 26 732 839 bf 1 0.466667 0 c 23 26 755 839 bf
 1 0.186667 0 c 23 26 778 839 bf 22 26 801 839 bf 23 26 823 839 bf 23 26 846 839 bf 1 0 0 c 23 26 869 839 bf 1 0.186667 0 c 23 26 892 839 bf 1 0 0 c 23 26 915 839 bf 22 26 938 839 bf 1 0.186667 0 c 23 26 1143 839 bf 23 26 1166 839 bf 22 26 1189 839
 bf 23 26 1211 839 bf 1 0.466667 0 c 23 26 1234 839 bf 23 26 1257 839 bf 23 26 1280 839 bf 1 0.653333 0 c 23 26 1303 839 bf 22 26 1326 839 bf 1 0.933333 0 c 23 26 1348 839 bf 23 26 1371 839 bf 0.88 1 0 c 23 26 1394 839 bf 0.6 1 0 c 23 26 1417 839 bf
 0.88 1 0 c 23 26 1440 839 bf 22 26 1463 839 bf 23 26 1485 839 bf 0.6 1 0 c 23 26 1508 839 bf 23 26 1531 839 bf 0.413333 1 0 c 23 26 1554 839 bf 22 26 1577 839 bf 0.133333 1 0 c 23 26 1599 839 bf 0.413333 1 0 c 23 26 1622 839 bf 0.133333 1 0 c 23 26
 1645 839 bf 0.413333 1 0 c 23 26 1668 839 bf 0.133333 1 0 c 23 26 1691 839 bf 22 26 1714 839 bf 23 26 1736 839 bf 23 26 1759 839 bf 23 26 1782 839 bf 0 1 0.0533333 c 23 26 1805 839 bf 23 26 1828 839 bf 0.133333 1 0 c 22 26 1851 839 bf 23 25 230 865
 bf 23 25 253 865 bf 23 25 276 865 bf 22 25 299 865 bf 23 25 321 865 bf 0.413333 1 0 c 23 25 344 865 bf 0.133333 1 0 c 23 25 367 865 bf 0.413333 1 0 c 23 25 390 865 bf 22 25 413 865 bf 23 25 435 865 bf 0.6 1 0 c 23 25 458 865 bf 23 25 481 865 bf 23
 25 504 865 bf 23 25 527 865 bf 22 25 550 865 bf 0.88 1 0 c 23 25 572 865 bf 23 25 595 865 bf 1 0.933333 0 c 23 25 618 865 bf 1 0.653333 0 c 23 25 641 865 bf 1 0.933333 0 c 23 25 664 865 bf 1 0.653333 0 c 22 25 687 865 bf 23 25 709 865 bf 1 0.466667
 0 c 23 25 732 865 bf 23 25 755 865 bf 1 0.186667 0 c 23 25 778 865 bf 22 25 801 865 bf 23 25 823 865 bf 1 0 0 c 23 25 846 865 bf 23 25 869 865 bf 23 25 892 865 bf 23 25 915 865 bf 22 25 938 865 bf 1 0.186667 0 c 23 25 1143 865 bf 23 25 1166 865 bf 1
 0 0 c 22 25 1189 865 bf 1 0.186667 0 c 23 25 1211 865 bf 23 25 1234 865 bf 1 0.466667 0 c 23 25 1257 865 bf 23 25 1280 865 bf 23 25 1303 865 bf 22 25 1326 865 bf 1 0.933333 0 c 23 25 1348 865 bf 23 25 1371 865 bf 23 25 1394 865 bf 0.88 1 0 c 23 25
 1417 865 bf 23 25 1440 865 bf 0.6 1 0 c 22 25 1463 865 bf 0.88 1 0 c 23 25 1485 865 bf 0.413333 1 0 c 23 25 1691 865 bf 0.133333 1 0 c 22 25 1714 865 bf 23 25 1736 865 bf 23 25 1759 865 bf 23 25 1782 865 bf 23 25 1805 865 bf 0 1 0.0533333 c 23 25
 1828 865 bf 0.133333 1 0 c 22 25 1851 865 bf 0 1 0.0533333 c 23 26 230 890 bf 23 26 253 890 bf 23 26 276 890 bf 0.133333 1 0 c 22 26 299 890 bf 23 26 321 890 bf 23 26 344 890 bf 23 26 367 890 bf 23 26 390 890 bf 0.413333 1 0 c 22 26 413 890 bf
 0.133333 1 0 c 23 26 435 890 bf 23 26 458 890 bf 0.413333 1 0 c 23 26 481 890 bf 23 26 504 890 bf 23 26 527 890 bf 0.6 1 0 c 22 26 550 890 bf 23 26 572 890 bf 0.88 1 0 c 23 26 595 890 bf 23 26 618 890 bf 23 26 641 890 bf 23 26 664 890 bf 1 0.933333
 0 c 22 26 687 890 bf 23 26 709 890 bf 23 26 732 890 bf 1 0.653333 0 c 23 26 755 890 bf 23 26 778 890 bf 22 26 801 890 bf 23 26 823 890 bf 1 0.466667 0 c 23 26 846 890 bf 23 26 869 890 bf 23 26 892 890 bf 23 26 915 890 bf 22 26 938 890 bf 23 26 1143
 890 bf 23 26 1166 890 bf 1 0.653333 0 c 22 26 1189 890 bf 1 0.466667 0 c 23 26 1211 890 bf 23 26 1234 890 bf 1 0.653333 0 c 23 26 1257 890 bf 23 26 1280 890 bf 1 0.933333 0 c 23 26 1303 890 bf 22 26 1326 890 bf 23 26 1348 890 bf 0.88 1 0 c 23 26
 1371 890 bf 0.6 1 0 c 23 26 1394 890 bf 23 26 1417 890 bf 23 26 1440 890 bf 22 26 1463 890 bf 23 26 1485 890 bf 0.413333 1 0 c 23 26 1508 890 bf 23 26 1531 890 bf 0.133333 1 0 c 23 26 1554 890 bf 0.413333 1 0 c 22 26 1577 890 bf 0.133333 1 0 c 23 26
 1599 890 bf 23 26 1622 890 bf 23 26 1645 890 bf 23 26 1668 890 bf 23 26 1691 890 bf 0 1 0.0533333 c 22 26 1714 890 bf 23 26 1736 890 bf 23 26 1759 890 bf 23 26 1782 890 bf 23 26 1805 890 bf 23 26 1828 890 bf 22 26 1851 890 bf 0.133333 1 0 c 23 26
 230 916 bf 23 26 253 916 bf 0 1 0.0533333 c 23 26 276 916 bf 0.133333 1 0 c 22 26 299 916 bf 23 26 321 916 bf 23 26 344 916 bf 23 26 367 916 bf 0.413333 1 0 c 23 26 390 916 bf 22 26 413 916 bf 23 26 435 916 bf 23 26 458 916 bf 23 26 481 916 bf 0.6 1
 0 c 23 26 504 916 bf 23 26 527 916 bf 22 26 550 916 bf 0.88 1 0 c 23 26 572 916 bf 23 26 595 916 bf 23 26 618 916 bf 23 26 641 916 bf 1 0.933333 0 c 23 26 664 916 bf 22 26 687 916 bf 23 26 709 916 bf 1 0.653333 0 c 23 26 732 916 bf 23 26 755 916 bf
 23 26 778 916 bf 1 0.466667 0 c 22 26 801 916 bf 23 26 823 916 bf 23 26 846 916 bf 23 26 869 916 bf 1 0.186667 0 c 23 26 892 916 bf 1 0.466667 0 c 23 26 915 916 bf 1 0.186667 0 c 22 26 938 916 bf 1 0.466667 0 c 23 26 1143 916 bf 23 26 1166 916 bf 22
 26 1189 916 bf 23 26 1211 916 bf 1 0.653333 0 c 23 26 1234 916 bf 0 0.0800001 1 c 23 26 1257 916 bf 1 0.653333 0 c 23 26 1280 916 bf 23 26 1303 916 bf 1 0.933333 0 c 22 26 1326 916 bf 23 26 1348 916 bf 0.88 1 0 c 23 26 1371 916 bf 23 26 1394 916 bf
 23 26 1417 916 bf 0.6 1 0 c 23 26 1440 916 bf 22 26 1463 916 bf 23 26 1485 916 bf 0.413333 1 0 c 23 26 1508 916 bf 23 26 1531 916 bf 23 26 1554 916 bf 22 26 1577 916 bf 0.133333 1 0 c 23 26 1599 916 bf 23 26 1622 916 bf 23 26 1645 916 bf 23 26 1668
 916 bf 23 26 1691 916 bf 22 26 1714 916 bf 23 26 1736 916 bf 0 1 0.0533333 c 23 26 1759 916 bf 23 26 1782 916 bf 23 26 1805 916 bf 23 26 1828 916 bf 22 26 1851 916 bf 0.133333 1 0 c 23 25 230 942 bf 23 25 253 942 bf 23 25 276 942 bf 22 25 299 942 bf
 23 25 321 942 bf 23 25 344 942 bf 0.413333 1 0 c 23 25 367 942 bf 23 25 390 942 bf 0.6 1 0 c 22 25 413 942 bf 0.413333 1 0 c 23 25 435 942 bf 23 25 458 942 bf 23 25 481 942 bf 0.6 1 0 c 23 25 504 942 bf 23 25 527 942 bf 0.88 1 0 c 22 25 550 942 bf
 23 25 572 942 bf 23 25 595 942 bf 23 25 618 942 bf 1 0.933333 0 c 23 25 641 942 bf 23 25 664 942 bf 1 0.653333 0 c 22 25 687 942 bf 1 0.466667 0 c 23 25 709 942 bf 23 25 732 942 bf 23 25 755 942 bf 1 0.186667 0 c 23 25 778 942 bf 22 25 801 942 bf 23
 25 823 942 bf 23 25 846 942 bf 1 0 0 c 23 25 869 942 bf 23 25 892 942 bf 23 25 915 942 bf 22 25 938 942 bf 23 25 1143 942 bf 1 0.186667 0 c 23 25 1166 942 bf 22 25 1189 942 bf 23 25 1211 942 bf 1 0.466667 0 c 23 25 1234 942 bf 23 25 1257 942 bf 23
 25 1280 942 bf 23 25 1303 942 bf 1 0.653333 0 c 22 25 1326 942 bf 1 0.933333 0 c 23 25 1348 942 bf 23 25 1371 942 bf 23 25 1394 942 bf 0.88 1 0 c 23 25 1417 942 bf 23 25 1440 942 bf 22 25 1463 942 bf 23 25 1485 942 bf 0.6 1 0 c 23 25 1508 942 bf
 0.413333 1 0 c 23 25 1531 942 bf 23 25 1554 942 bf 22 25 1577 942 bf 23 25 1599 942 bf 23 25 1622 942 bf 23 25 1645 942 bf 23 25 1668 942 bf 0.386667 0 1 c 23 25 1691 942 bf 22 25 1714 942 bf 23 25 1736 942 bf 23 25 1759 942 bf 23 25 1782 942 bf 23
 25 1805 942 bf 23 25 1828 942 bf 22 25 1851 942 bf 0.133333 1 0 c 23 26 230 1070 bf 23 26 253 1070 bf 23 26 276 1070 bf 22 26 299 1070 bf 23 26 321 1070 bf 23 26 344 1070 bf 23 26 367 1070 bf 0.413333 1 0 c 23 26 390 1070 bf 22 26 413 1070 bf 23 26
 435 1070 bf 23 26 458 1070 bf 23 26 481 1070 bf 0.6 1 0 c 23 26 504 1070 bf 23 26 527 1070 bf 22 26 550 1070 bf 0.88 1 0 c 23 26 572 1070 bf 23 26 595 1070 bf 23 26 618 1070 bf 23 26 641 1070 bf 1 0.933333 0 c 23 26 664 1070 bf 22 26 687 1070 bf 1
 0.653333 0 c 23 26 709 1070 bf 23 26 732 1070 bf 1 0.466667 0 c 23 26 755 1070 bf 1 0.186667 0 c 23 26 1143 1070 bf 1 0.466667 0 c 23 26 1166 1070 bf 22 26 1189 1070 bf 23 26 1211 1070 bf 23 26 1234 1070 bf 1 0.653333 0 c 23 26 1257 1070 bf 23 26
 1280 1070 bf 23 26 1303 1070 bf 1 0.933333 0 c 22 26 1326 1070 bf 23 26 1348 1070 bf 0.88 1 0 c 23 26 1371 1070 bf 23 26 1394 1070 bf 23 26 1417 1070 bf 0.6 1 0 c 23 26 1440 1070 bf 22 26 1463 1070 bf 23 26 1485 1070 bf 23 26 1508 1070 bf 0.413333 1
 0 c 23 26 1531 1070 bf 23 26 1554 1070 bf 22 26 1577 1070 bf 23 26 1599 1070 bf 23 26 1622 1070 bf 0.133333 1 0 c 23 26 1645 1070 bf 23 26 1668 1070 bf 23 26 1691 1070 bf 22 26 1714 1070 bf 23 26 1736 1070 bf 23 26 1759 1070 bf 23 26 1782 1070 bf 23
 26 1805 1070 bf 23 26 1828 1070 bf 22 26 1851 1070 bf 23 26 230 1096 bf 23 26 253 1096 bf 23 26 276 1096 bf 22 26 299 1096 bf 23 26 321 1096 bf 23 26 344 1096 bf 23 26 367 1096 bf 0.413333 1 0 c 23 26 390 1096 bf 0.6 1 0 c 22 26 413 1096 bf 0.413333
 1 0 c 23 26 435 1096 bf 0.6 1 0 c 23 26 458 1096 bf 23 26 481 1096 bf 23 26 504 1096 bf 23 26 527 1096 bf 0.88 1 0 c 22 26 550 1096 bf 23 26 572 1096 bf 1 0.933333 0 c 23 26 595 1096 bf 23 26 618 1096 bf 23 26 641 1096 bf 1 0.653333 0 c 23 26 664
 1096 bf 22 26 687 1096 bf 23 26 709 1096 bf 1 0.466667 0 c 23 26 732 1096 bf 1 0.186667 0 c 23 26 755 1096 bf 23 26 1143 1096 bf 23 26 1166 1096 bf 22 26 1189 1096 bf 23 26 1211 1096 bf 23 26 1234 1096 bf 1 0.466667 0 c 23 26 1257 1096 bf 1 0.653333
 0 c 23 26 1280 1096 bf 1 0.466667 0 c 23 26 1303 1096 bf 1 0.653333 0 c 22 26 1326 1096 bf 23 26 1348 1096 bf 1 0.933333 0 c 23 26 1371 1096 bf 23 26 1394 1096 bf 0.88 1 0 c 23 26 1417 1096 bf 23 26 1440 1096 bf 0.6 1 0 c 22 26 1463 1096 bf 0.88 1 0
 c 23 26 1485 1096 bf 0.6 1 0 c 23 26 1508 1096 bf 23 26 1531 1096 bf 23 26 1554 1096 bf 0.413333 1 0 c 22 26 1577 1096 bf 23 26 1599 1096 bf 23 26 1622 1096 bf 23 26 1645 1096 bf 23 26 1668 1096 bf 23 26 1691 1096 bf 0.133333 1 0 c 22 26 1714 1096
 bf 23 26 1736 1096 bf 23 26 1759 1096 bf 23 26 1782 1096 bf 23 26 1805 1096 bf 23 26 1828 1096 bf 22 26 1851 1096 bf 23 25 230 1122 bf 23 25 253 1122 bf 23 25 276 1122 bf 22 25 299 1122 bf 23 25 321 1122 bf 23 25 344 1122 bf 0.413333 1 0 c 23 25 367
 1122 bf 23 25 390 1122 bf 0.6 1 0 c 22 25 413 1122 bf 0.413333 1 0 c 23 25 435 1122 bf 0.6 1 0 c 23 25 458 1122 bf 23 25 481 1122 bf 23 25 504 1122 bf 0.88 1 0 c 23 25 527 1122 bf 0.6 1 0 c 22 25 550 1122 bf 0.88 1 0 c 23 25 572 1122 bf 23 25 595
 1122 bf 1 0.933333 0 c 23 25 618 1122 bf 23 25 641 1122 bf 23 25 664 1122 bf 1 0.653333 0 c 22 25 687 1122 bf 1 0.466667 0 c 23 25 709 1122 bf 23 25 732 1122 bf 23 25 755 1122 bf 1 0.186667 0 c 23 25 778 1122 bf 22 25 801 1122 bf 1 0 0 c 23 25 823
 1122 bf 23 25 846 1122 bf 23 25 869 1122 bf 23 25 892 1122 bf 23 25 915 1122 bf 22 25 938 1122 bf 23 25 1143 1122 bf 1 0.466667 0 c 23 25 1166 1122 bf 1 0.186667 0 c 22 25 1189 1122 bf 23 25 1211 1122 bf 1 0.466667 0 c 23 25 1234 1122 bf 23 25 1257
 1122 bf 23 25 1280 1122 bf 23 25 1303 1122 bf 1 0.933333 0 c 22 25 1326 1122 bf 23 25 1348 1122 bf 23 25 1371 1122 bf 0.88 1 0 c 23 25 1394 1122 bf 23 25 1417 1122 bf 23 25 1440 1122 bf 0.6 1 0 c 22 25 1463 1122 bf 23 25 1485 1122 bf 23 25 1508 1122
 bf 0.413333 1 0 c 23 25 1531 1122 bf 23 25 1554 1122 bf 22 25 1577 1122 bf 23 25 1599 1122 bf 23 25 1622 1122 bf 23 25 1645 1122 bf 23 25 1668 1122 bf 23 25 1691 1122 bf 0.133333 1 0 c 22 25 1714 1122 bf 23 25 1736 1122 bf 23 25 1759 1122 bf 23 25
 1782 1122 bf 0 1 0.0533333 c 23 25 1805 1122 bf 0.133333 1 0 c 23 25 1828 1122 bf 22 25 1851 1122 bf 0 1 0.0533333 c 23 26 230 1147 bf 23 26 253 1147 bf 0.133333 1 0 c 23 26 276 1147 bf 22 26 299 1147 bf 0 1 0.0533333 c 23 26 321 1147 bf 0.133333 1
 0 c 23 26 344 1147 bf 23 26 367 1147 bf 23 26 390 1147 bf 22 26 413 1147 bf 23 26 435 1147 bf 0.413333 1 0 c 23 26 458 1147 bf 23 26 481 1147 bf 23 26 504 1147 bf 0.6 1 0 c 23 26 527 1147 bf 22 26 550 1147 bf 23 26 572 1147 bf 23 26 595 1147 bf 0.88
 1 0 c 23 26 618 1147 bf 23 26 641 1147 bf 1 0.933333 0 c 23 26 664 1147 bf 22 26 687 1147 bf 23 26 709 1147 bf 1 0.653333 0 c 23 26 732 1147 bf 23 26 755 1147 bf 23 26 778 1147 bf 1 0.466667 0 c 22 26 801 1147 bf 23 26 823 1147 bf 23 26 846 1147 bf
 23 26 869 1147 bf 23 26 892 1147 bf 23 26 915 1147 bf 22 26 938 1147 bf 1 0.653333 0 c 23 26 1143 1147 bf 23 26 1166 1147 bf 1 0.466667 0 c 22 26 1189 1147 bf 23 26 1211 1147 bf 1 0.653333 0 c 23 26 1234 1147 bf 23 26 1257 1147 bf 1 0.933333 0 c 23
 26 1280 1147 bf 1 0.653333 0 c 23 26 1303 1147 bf 1 0.933333 0 c 22 26 1326 1147 bf 23 26 1348 1147 bf 0.88 1 0 c 23 26 1371 1147 bf 23 26 1394 1147 bf 23 26 1417 1147 bf 0.6 1 0 c 23 26 1440 1147 bf 22 26 1463 1147 bf 0.413333 1 0 c 23 26 1485 1147
 bf 23 26 1508 1147 bf 23 26 1531 1147 bf 23 26 1554 1147 bf 22 26 1577 1147 bf 0.133333 1 0 c 23 26 1599 1147 bf 23 26 1622 1147 bf 23 26 1645 1147 bf 23 26 1668 1147 bf 23 26 1691 1147 bf 22 26 1714 1147 bf 0 1 0.0533333 c 23 26 1736 1147 bf 23 26
 1759 1147 bf 23 26 1782 1147 bf 23 26 1805 1147 bf 23 26 1828 1147 bf 22 26 1851 1147 bf 0.133333 1 0 c 23 26 230 1173 bf 0 1 0.0533333 c 23 26 253 1173 bf 23 26 276 1173 bf 0.133333 1 0 c 22 26 299 1173 bf 23 26 321 1173 bf 23 26 344 1173 bf 23 26
 367 1173 bf 0.413333 1 0 c 23 26 390 1173 bf 22 26 413 1173 bf 23 26 435 1173 bf 23 26 458 1173 bf 23 26 481 1173 bf 23 26 504 1173 bf 23 26 527 1173 bf 0.6 1 0 c 22 26 550 1173 bf 23 26 572 1173 bf 0.88 1 0 c 23 26 595 1173 bf 23 26 618 1173 bf 23
 26 641 1173 bf 1 0.933333 0 c 23 26 664 1173 bf 22 26 687 1173 bf 23 26 709 1173 bf 1 0.653333 0 c 23 26 732 1173 bf 23 26 755 1173 bf 1 0.466667 0 c 23 26 778 1173 bf 22 26 801 1173 bf 23 26 823 1173 bf 23 26 846 1173 bf 23 26 869 1173 bf 23 26 892
 1173 bf 1 0.186667 0 c 23 26 915 1173 bf 1 0.466667 0 c 22 26 938 1173 bf 1 0.653333 0 c 23 26 1143 1173 bf 1 0.466667 0 c 23 26 1166 1173 bf 1 0.653333 0 c 22 26 1189 1173 bf 23 26 1211 1173 bf 1 0.466667 0 c 23 26 1234 1173 bf 1 0.653333 0 c 23 26
 1257 1173 bf 1 0.933333 0 c 23 26 1280 1173 bf 23 26 1303 1173 bf 22 26 1326 1173 bf 23 26 1348 1173 bf 0.88 1 0 c 23 26 1371 1173 bf 23 26 1394 1173 bf 23 26 1417 1173 bf 0.6 1 0 c 23 26 1440 1173 bf 22 26 1463 1173 bf 0.413333 1 0 c 23 26 1485
 1173 bf 0.6 1 0 c 23 26 1508 1173 bf 0.413333 1 0 c 23 26 1531 1173 bf 23 26 1554 1173 bf 0.133333 1 0 c 22 26 1577 1173 bf 23 26 1599 1173 bf 23 26 1622 1173 bf 23 26 1645 1173 bf 23 26 1668 1173 bf 23 26 1691 1173 bf 22 26 1714 1173 bf 0 1
 0.0533333 c 23 26 1736 1173 bf 23 26 1759 1173 bf 23 26 1782 1173 bf 23 26 1805 1173 bf 23 26 1828 1173 bf 22 26 1851 1173 bf 0.133333 1 0 c 23 25 230 1199 bf 23 25 253 1199 bf 23 25 276 1199 bf 22 25 299 1199 bf 23 25 321 1199 bf 0.413333 1 0 c 23
 25 344 1199 bf 0.133333 1 0 c 23 25 367 1199 bf 0.413333 1 0 c 23 25 390 1199 bf 0.6 1 0 c 22 25 413 1199 bf 0.413333 1 0 c 23 25 435 1199 bf 0.6 1 0 c 23 25 458 1199 bf 23 25 481 1199 bf 23 25 504 1199 bf 23 25 527 1199 bf 0.88 1 0 c 22 25 550 1199
 bf 23 25 572 1199 bf 1 0.933333 0 c 23 25 595 1199 bf 23 25 618 1199 bf 23 25 641 1199 bf 1 0.653333 0 c 23 25 664 1199 bf 22 25 687 1199 bf 23 25 709 1199 bf 1 0.466667 0 c 23 25 732 1199 bf 23 25 755 1199 bf 1 0.186667 0 c 23 25 778 1199 bf 22 25
 801 1199 bf 23 25 823 1199 bf 23 25 846 1199 bf 1 0 0 c 23 25 869 1199 bf 23 25 892 1199 bf 23 25 915 1199 bf 22 25 938 1199 bf 23 25 1143 1199 bf 1 0.186667 0 c 23 25 1166 1199 bf 22 25 1189 1199 bf 23 25 1211 1199 bf 1 0.466667 0 c 23 25 1234 1199
 bf 23 25 1257 1199 bf 1 0.653333 0 c 23 25 1280 1199 bf 1 0.466667 0 c 23 25 1303 1199 bf 1 0.933333 0 c 22 25 1326 1199 bf 23 25 1348 1199 bf 23 25 1371 1199 bf 23 25 1394 1199 bf 0.88 1 0 c 23 25 1417 1199 bf 23 25 1440 1199 bf 0.6 1 0 c 22 25
 1463 1199 bf 0.88 1 0 c 23 25 1485 1199 bf 0.6 1 0 c 23 25 1508 1199 bf 23 25 1531 1199 bf 0.413333 1 0 c 23 25 1554 1199 bf 22 25 1577 1199 bf 23 25 1599 1199 bf 23 25 1622 1199 bf 23 25 1645 1199 bf 23 25 1668 1199 bf 23 25 1691 1199 bf 0.133333 1
 0 c 22 25 1714 1199 bf 23 25 1736 1199 bf 0 1 0.0533333 c 23 25 1759 1199 bf 23 25 1782 1199 bf 23 25 1805 1199 bf 23 25 1828 1199 bf 0.133333 1 0 c 22 25 1851 1199 bf 23 26 230 1224 bf 23 26 253 1224 bf 23 26 276 1224 bf 22 26 299 1224 bf 23 26 321
 1224 bf 0.413333 1 0 c 23 26 344 1224 bf 23 26 367 1224 bf 23 26 390 1224 bf 22 26 413 1224 bf 23 26 435 1224 bf 23 26 458 1224 bf 23 26 481 1224 bf 0.6 1 0 c 23 26 504 1224 bf 23 26 527 1224 bf 22 26 550 1224 bf 0.88 1 0 c 23 26 572 1224 bf 1
 0.933333 0 c 23 26 595 1224 bf 23 26 618 1224 bf 23 26 641 1224 bf 1 0.653333 0 c 23 26 664 1224 bf 22 26 687 1224 bf 23 26 709 1224 bf 1 0.466667 0 c 23 26 732 1224 bf 23 26 755 1224 bf 1 0.186667 0 c 23 26 778 1224 bf 22 26 801 1224 bf 23 26 823
 1224 bf 23 26 846 1224 bf 1 0 0 c 23 26 869 1224 bf 23 26 892 1224 bf 23 26 915 1224 bf 22 26 938 1224 bf 23 26 1143 1224 bf 23 26 1166 1224 bf 1 0.186667 0 c 22 26 1189 1224 bf 23 26 1211 1224 bf 23 26 1234 1224 bf 23 26 1257 1224 bf 1 0.466667 0 c
 23 26 1280 1224 bf 23 26 1303 1224 bf 1 0.653333 0 c 22 26 1326 1224 bf 23 26 1348 1224 bf 1 0.933333 0 c 23 26 1371 1224 bf 23 26 1394 1224 bf 0.88 1 0 c 23 26 1417 1224 bf 23 26 1440 1224 bf 0.6 1 0 c 22 26 1463 1224 bf 23 26 1485 1224 bf 23 26
 1508 1224 bf 0.413333 1 0 c 23 26 1531 1224 bf 0.6 1 0 c 23 26 1554 1224 bf 0.413333 1 0 c 22 26 1577 1224 bf 23 26 1599 1224 bf 23 26 1622 1224 bf 23 26 1645 1224 bf 23 26 1668 1224 bf 0.133333 1 0 c 23 26 1691 1224 bf 22 26 1714 1224 bf 23 26 1736
 1224 bf 0 1 0.0533333 c 23 26 1759 1224 bf 23 26 1782 1224 bf 23 26 1805 1224 bf 23 26 1828 1224 bf 0.133333 1 0 c 22 26 1851 1224 bf 0 1 0.0533333 c 23 26 230 1250 bf 23 26 253 1250 bf 0.133333 1 0 c 23 26 276 1250 bf 22 26 299 1250 bf 23 26 321
 1250 bf 23 26 344 1250 bf 23 26 367 1250 bf 23 26 390 1250 bf 0.413333 1 0 c 22 26 413 1250 bf 0.133333 1 0 c 23 26 435 1250 bf 0.413333 1 0 c 23 26 458 1250 bf 23 26 481 1250 bf 23 26 504 1250 bf 0.6 1 0 c 23 26 527 1250 bf 0.413333 1 0 c 22 26 550
 1250 bf 0.88 1 0 c 23 26 572 1250 bf 23 26 595 1250 bf 23 26 618 1250 bf 23 26 641 1250 bf 1 0.933333 0 c 23 26 664 1250 bf 0.88 1 0 c 22 26 687 1250 bf 1 0.933333 0 c 23 26 709 1250 bf 23 26 732 1250 bf 1 0.653333 0 c 23 26 755 1250 bf 23 26 778
 1250 bf 1 0.466667 0 c 22 26 801 1250 bf 23 26 823 1250 bf 23 26 846 1250 bf 23 26 869 1250 bf 23 26 892 1250 bf 23 26 915 1250 bf 22 26 938 1250 bf 23 26 1143 1250 bf 23 26 1166 1250 bf 22 26 1189 1250 bf 1 0.653333 0 c 23 26 1211 1250 bf 23 26
 1234 1250 bf 23 26 1257 1250 bf 23 26 1280 1250 bf 1 0.933333 0 c 23 26 1303 1250 bf 0.88 1 0 c 22 26 1326 1250 bf 23 26 1348 1250 bf 23 26 1371 1250 bf 23 26 1394 1250 bf 0.6 1 0 c 23 26 1417 1250 bf 0.413333 1 0 c 23 26 1440 1250 bf 0.6 1 0 c 22
 26 1463 1250 bf 0.413333 1 0 c 23 26 1485 1250 bf 0.6 1 0 c 23 26 1508 1250 bf 0.413333 1 0 c 23 26 1531 1250 bf 23 26 1554 1250 bf 22 26 1577 1250 bf 0.133333 1 0 c 23 26 1599 1250 bf 23 26 1622 1250 bf 23 26 1645 1250 bf 23 26 1668 1250 bf 23 26
 1691 1250 bf 22 26 1714 1250 bf 0 1 0.0533333 c 23 26 1736 1250 bf 23 26 1759 1250 bf 23 26 1782 1250 bf 23 26 1805 1250 bf 23 26 1828 1250 bf 22 26 1851 1250 bf 23 25 230 1276 bf 23 25 253 1276 bf 0.133333 1 0 c 23 25 276 1276 bf 0 1 0.0533333 c 22
 25 299 1276 bf 0.133333 1 0 c 23 25 321 1276 bf 23 25 344 1276 bf 23 25 367 1276 bf 23 25 390 1276 bf 22 25 413 1276 bf 0.413333 1 0 c 23 25 435 1276 bf 23 25 458 1276 bf 23 25 481 1276 bf 23 25 504 1276 bf 23 25 527 1276 bf 0.6 1 0 c 22 25 550 1276
 bf 23 25 572 1276 bf 0.88 1 0 c 23 25 595 1276 bf 23 25 618 1276 bf 23 25 641 1276 bf 23 25 664 1276 bf 1 0.933333 0 c 22 25 687 1276 bf 23 25 709 1276 bf 23 25 732 1276 bf 1 0.653333 0 c 23 25 755 1276 bf 23 25 778 1276 bf 1 0.466667 0 c 22 25 801
 1276 bf 23 25 823 1276 bf 23 25 846 1276 bf 23 25 869 1276 bf 1 0.186667 0 c 23 25 892 1276 bf 1 0.466667 0 c 23 25 915 1276 bf 1 0.186667 0 c 22 25 938 1276 bf 1 0.466667 0 c 23 25 1143 1276 bf 23 25 1166 1276 bf 1 0.653333 0 c 22 25 1189 1276 bf 1
 0.466667 0 c 23 25 1211 1276 bf 23 25 1234 1276 bf 1 0.653333 0 c 23 25 1257 1276 bf 23 25 1280 1276 bf 23 25 1303 1276 bf 1 0.933333 0 c 22 25 1326 1276 bf 0.88 1 0 c 23 25 1348 1276 bf 23 25 1371 1276 bf 23 25 1394 1276 bf 0.6 1 0 c 23 25 1417
 1276 bf 23 25 1440 1276 bf 22 25 1463 1276 bf 0.413333 1 0 c 23 25 1485 1276 bf 23 25 1508 1276 bf 23 25 1531 1276 bf 23 25 1554 1276 bf 22 25 1577 1276 bf 0.133333 1 0 c 23 25 1599 1276 bf 23 25 1622 1276 bf 23 25 1645 1276 bf 23 25 1668 1276 bf 23
 25 1691 1276 bf 22 25 1714 1276 bf 23 25 1736 1276 bf 23 25 1759 1276 bf 0 1 0.0533333 c 23 25 1782 1276 bf 23 25 1805 1276 bf 23 25 1828 1276 bf 22 25 1851 1276 bf 0.133333 1 0 c 23 26 230 1301 bf 23 26 253 1301 bf 23 26 276 1301 bf 22 26 299 1301
 bf 23 26 321 1301 bf 23 26 344 1301 bf 23 26 367 1301 bf 0.413333 1 0 c 23 26 390 1301 bf 22 26 413 1301 bf 23 26 435 1301 bf 23 26 458 1301 bf 0.6 1 0 c 23 26 481 1301 bf 23 26 504 1301 bf 0.88 1 0 c 23 26 527 1301 bf 22 26 550 1301 bf 23 26 572
 1301 bf 23 26 595 1301 bf 23 26 618 1301 bf 1 0.933333 0 c 23 26 641 1301 bf 23 26 664 1301 bf 1 0.653333 0 c 22 26 687 1301 bf 23 26 709 1301 bf 1 0.466667 0 c 23 26 732 1301 bf 23 26 755 1301 bf 1 0.186667 0 c 23 26 778 1301 bf 22 26 801 1301 bf
 23 26 823 1301 bf 23 26 846 1301 bf 1 0 0 c 23 26 869 1301 bf 23 26 892 1301 bf 23 26 915 1301 bf 1 0.186667 0 c 22 26 938 1301 bf 23 26 1143 1301 bf 23 26 1166 1301 bf 22 26 1189 1301 bf 23 26 1211 1301 bf 1 0.466667 0 c 23 26 1234 1301 bf 23 26
 1257 1301 bf 23 26 1280 1301 bf 1 0.653333 0 c 23 26 1303 1301 bf 22 26 1326 1301 bf 1 0.933333 0 c 23 26 1348 1301 bf 23 26 1371 1301 bf 0.88 1 0 c 23 26 1394 1301 bf 23 26 1417 1301 bf 23 26 1440 1301 bf 22 26 1463 1301 bf 23 26 1485 1301 bf 0.6 1
 0 c 23 26 1508 1301 bf 0.413333 1 0 c 23 26 1531 1301 bf 23 26 1554 1301 bf 22 26 1577 1301 bf 23 26 1599 1301 bf 23 26 1622 1301 bf 0.133333 1 0 c 23 26 1645 1301 bf 0.413333 1 0 c 23 26 1668 1301 bf 0.133333 1 0 c 23 26 1691 1301 bf 22 26 1714
 1301 bf 23 26 1736 1301 bf 23 26 1759 1301 bf 23 26 1782 1301 bf 0 1 0.0533333 c 23 26 1805 1301 bf 0.133333 1 0 c 23 26 1828 1301 bf 22 26 1851 1301 bf 23 26 230 1327 bf 23 26 253 1327 bf 0 1 0.0533333 c 23 26 276 1327 bf 0.133333 1 0 c 22 26 299
 1327 bf 23 26 321 1327 bf 23 26 344 1327 bf 23 26 367 1327 bf 0.413333 1 0 c 23 26 390 1327 bf 22 26 413 1327 bf 23 26 435 1327 bf 23 26 458 1327 bf 23 26 481 1327 bf 0.6 1 0 c 23 26 504 1327 bf 23 26 527 1327 bf 22 26 550 1327 bf 0.88 1 0 c 23 26
 572 1327 bf 23 26 595 1327 bf 1 0.933333 0 c 23 26 618 1327 bf 23 26 641 1327 bf 23 26 664 1327 bf 1 0.653333 0 c 22 26 687 1327 bf 23 26 709 1327 bf 23 26 732 1327 bf 1 0.466667 0 c 23 26 755 1327 bf 1 0.186667 0 c 23 26 778 1327 bf 22 26 801 1327
 bf 23 26 823 1327 bf 23 26 846 1327 bf 23 26 869 1327 bf 1 0 0 c 23 26 892 1327 bf 23 26 915 1327 bf 22 26 938 1327 bf 23 26 1143 1327 bf 1 0.186667 0 c 23 26 1166 1327 bf 22 26 1189 1327 bf 23 26 1211 1327 bf 1 0.466667 0 c 23 26 1234 1327 bf 23 26
 1257 1327 bf 23 26 1280 1327 bf 23 26 1303 1327 bf 1 0.653333 0 c 22 26 1326 1327 bf 1 0.933333 0 c 23 26 1348 1327 bf 23 26 1371 1327 bf 0.88 1 0 c 23 26 1394 1327 bf 23 26 1417 1327 bf 0.6 1 0 c 23 26 1440 1327 bf 0.88 1 0 c 22 26 1463 1327 bf 23
 26 1485 1327 bf 0.6 1 0 c 23 26 1508 1327 bf 23 26 1531 1327 bf 0.413333 1 0 c 23 26 1554 1327 bf 22 26 1577 1327 bf 23 26 1599 1327 bf 0.133333 1 0 c 23 26 1622 1327 bf 23 26 1645 1327 bf 23 26 1668 1327 bf 23 26 1691 1327 bf 22 26 1714 1327 bf 23
 26 1736 1327 bf 23 26 1759 1327 bf 0 1 0.0533333 c 23 26 1782 1327 bf 23 26 1805 1327 bf 23 26 1828 1327 bf 0.133333 1 0 c 22 26 1851 1327 bf 0 1 0.0533333 c 23 25 230 1353 bf 23 25 253 1353 bf 23 25 276 1353 bf 22 25 299 1353 bf 0.133333 1 0 c 23
 25 321 1353 bf 23 25 344 1353 bf 23 25 367 1353 bf 23 25 390 1353 bf 22 25 413 1353 bf 23 25 435 1353 bf 0.413333 1 0 c 23 25 458 1353 bf 23 25 481 1353 bf 23 25 504 1353 bf 23 25 527 1353 bf 0.6 1 0 c 22 25 550 1353 bf 23 25 572 1353 bf 0.88 1 0 c
 23 25 595 1353 bf 0.6 1 0 c 23 25 618 1353 bf 0.88 1 0 c 23 25 641 1353 bf 23 25 664 1353 bf 22 25 687 1353 bf 1 0.933333 0 c 23 25 709 1353 bf 23 25 732 1353 bf 1 0.653333 0 c 23 25 755 1353 bf 23 25 778 1353 bf 1 0.466667 0 c 22 25 801 1353 bf 1
 0.653333 0 c 23 25 823 1353 bf 23 25 846 1353 bf 1 0.466667 0 c 23 25 869 1353 bf 23 25 892 1353 bf 23 25 915 1353 bf 22 25 938 1353 bf 23 25 1143 1353 bf 23 25 1166 1353 bf 22 25 1189 1353 bf 1 0.653333 0 c 23 25 1211 1353 bf 23 25 1234 1353 bf 23
 25 1257 1353 bf 1 0.933333 0 c 23 25 1280 1353 bf 23 25 1303 1353 bf 22 25 1326 1353 bf 0.88 1 0 c 23 25 1348 1353 bf 23 25 1371 1353 bf 0.6 1 0 c 23 25 1394 1353 bf 23 25 1417 1353 bf 23 25 1440 1353 bf 22 25 1463 1353 bf 0.413333 1 0 c 23 25 1485
 1353 bf 23 25 1508 1353 bf 23 25 1531 1353 bf 0.133333 1 0 c 23 25 1554 1353 bf 22 25 1577 1353 bf 23 25 1599 1353 bf 23 25 1622 1353 bf 0 1 0.0533333 c 23 25 1645 1353 bf 0.133333 1 0 c 23 25 1668 1353 bf 23 25 1691 1353 bf 0 1 0.0533333 c 22 25
 1714 1353 bf 23 25 1736 1353 bf 23 25 1759 1353 bf 23 25 1782 1353 bf 23 25 1805 1353 bf 23 25 1828 1353 bf 22 25 1851 1353 bf 23 26 230 1378 bf 23 26 253 1378 bf 23 26 276 1378 bf 22 26 299 1378 bf 0.133333 1 0 c 23 26 321 1378 bf 23 26 344 1378 bf
 23 26 367 1378 bf 23 26 390 1378 bf 22 26 413 1378 bf 23 26 435 1378 bf 0.413333 1 0 c 23 26 458 1378 bf 23 26 481 1378 bf 23 26 504 1378 bf 0.6 1 0 c 23 26 527 1378 bf 0.413333 1 0 c 22 26 550 1378 bf 0.6 1 0 c 23 26 572 1378 bf 0.88 1 0 c 23 26
 595 1378 bf 0.6 1 0 c 23 26 618 1378 bf 0.88 1 0 c 23 26 641 1378 bf 23 26 664 1378 bf 1 0.933333 0 c 22 26 687 1378 bf 23 26 709 1378 bf 23 26 732 1378 bf 1 0.653333 0 c 23 26 755 1378 bf 23 26 778 1378 bf 1 0.466667 0 c 22 26 801 1378 bf 1
 0.653333 0 c 23 26 823 1378 bf 1 0.466667 0 c 23 26 846 1378 bf 23 26 869 1378 bf 23 26 892 1378 bf 23 26 915 1378 bf 22 26 938 1378 bf 23 26 1143 1378 bf 23 26 1166 1378 bf 22 26 1189 1378 bf 1 0.653333 0 c 23 26 1211 1378 bf 23 26 1234 1378 bf 23
 26 1257 1378 bf 1 0.933333 0 c 23 26 1280 1378 bf 23 26 1303 1378 bf 22 26 1326 1378 bf 0.88 1 0 c 23 26 1348 1378 bf 23 26 1371 1378 bf 23 26 1394 1378 bf 0.6 1 0 c 23 26 1417 1378 bf 23 26 1440 1378 bf 22 26 1463 1378 bf 23 26 1485 1378 bf
 0.413333 1 0 c 23 26 1508 1378 bf 23 26 1531 1378 bf 23 26 1554 1378 bf 0.133333 1 0 c 22 26 1577 1378 bf 23 26 1599 1378 bf 23 26 1622 1378 bf 23 26 1645 1378 bf 23 26 1668 1378 bf 23 26 1691 1378 bf 22 26 1714 1378 bf 0 1 0.0533333 c 23 26 1736
 1378 bf 23 26 1759 1378 bf 23 26 1782 1378 bf 23 26 1805 1378 bf 23 26 1828 1378 bf 22 26 1851 1378 bf 0.133333 1 0 c 23 26 230 1404 bf 23 26 253 1404 bf 23 26 276 1404 bf 22 26 299 1404 bf 23 26 321 1404 bf 23 26 344 1404 bf 23 26 367 1404 bf
 0.413333 1 0 c 23 26 390 1404 bf 22 26 413 1404 bf 23 26 435 1404 bf 23 26 458 1404 bf 0.6 1 0 c 23 26 481 1404 bf 23 26 504 1404 bf 23 26 527 1404 bf 22 26 550 1404 bf 23 26 572 1404 bf 0.88 1 0 c 23 26 595 1404 bf 23 26 618 1404 bf 23 26 641 1404
 bf 1 0.933333 0 c 23 26 664 1404 bf 1 0.653333 0 c 22 26 687 1404 bf 23 26 709 1404 bf 23 26 732 1404 bf 1 0.466667 0 c 23 26 755 1404 bf 1 0.186667 0 c 23 26 778 1404 bf 1 0.466667 0 c 22 26 801 1404 bf 1 0.186667 0 c 23 26 823 1404 bf 23 26 846
 1404 bf 23 26 869 1404 bf 23 26 892 1404 bf 1 0 0 c 23 26 915 1404 bf 1 0.186667 0 c 22 26 938 1404 bf 23 26 1143 1404 bf 23 26 1166 1404 bf 22 26 1189 1404 bf 23 26 1211 1404 bf 1 0.466667 0 c 23 26 1234 1404 bf 23 26 1257 1404 bf 23 26 1280 1404
 bf 1 0.653333 0 c 23 26 1303 1404 bf 1 0.933333 0 c 22 26 1326 1404 bf 23 26 1348 1404 bf 23 26 1371 1404 bf 0.88 1 0 c 23 26 1394 1404 bf 23 26 1417 1404 bf 23 26 1440 1404 bf 22 26 1463 1404 bf 0.6 1 0 c 23 26 1485 1404 bf 0.413333 1 0 c 23 26
 1508 1404 bf 23 26 1531 1404 bf 23 26 1554 1404 bf 22 26 1577 1404 bf 0.133333 1 0 c 23 26 1599 1404 bf 23 26 1622 1404 bf 0.413333 1 0 c 23 26 1645 1404 bf 23 26 1668 1404 bf 0.133333 1 0 c 23 26 1691 1404 bf 0 1 0.0533333 c 22 26 1714 1404 bf
 0.133333 1 0 c 23 26 1736 1404 bf 23 26 1759 1404 bf 0 1 0.0533333 c 23 26 1782 1404 bf 0.133333 1 0 c 23 26 1805 1404 bf 0 1 0.0533333 c 23 26 1828 1404 bf 22 26 1851 1404 bf 0.133333 1 0 c 23 25 230 1430 bf 0 1 0.0533333 c 23 25 253 1430 bf
 0.133333 1 0 c 23 25 276 1430 bf 22 25 299 1430 bf 23 25 321 1430 bf 23 25 344 1430 bf 23 25 367 1430 bf 0.413333 1 0 c 23 25 390 1430 bf 22 25 413 1430 bf 23 25 435 1430 bf 23 25 458 1430 bf 23 25 481 1430 bf 23 25 504 1430 bf 0.6 1 0 c 23 25 527
 1430 bf 22 25 550 1430 bf 0.88 1 0 c 23 25 572 1430 bf 23 25 595 1430 bf 23 25 618 1430 bf 1 0.933333 0 c 23 25 641 1430 bf 23 25 664 1430 bf 22 25 687 1430 bf 1 0.653333 0 c 23 25 709 1430 bf 23 25 732 1430 bf 1 0.466667 0 c 23 25 755 1430 bf 23 25
 778 1430 bf 22 25 801 1430 bf 1 0.186667 0 c 23 25 823 1430 bf 23 25 846 1430 bf 23 25 869 1430 bf 23 25 892 1430 bf 23 25 915 1430 bf 22 25 938 1430 bf 23 25 1143 1430 bf 23 25 1166 1430 bf 22 25 1189 1430 bf 23 25 1211 1430 bf 1 0.466667 0 c 23 25
 1234 1430 bf 23 25 1257 1430 bf 23 25 1280 1430 bf 1 0.653333 0 c 23 25 1303 1430 bf 1 0.933333 0 c 22 25 1326 1430 bf 23 25 1348 1430 bf 23 25 1371 1430 bf 0.88 1 0 c 23 25 1394 1430 bf 23 25 1417 1430 bf 0.6 1 0 c 23 25 1440 1430 bf 22 25 1463
 1430 bf 23 25 1485 1430 bf 0.133333 1 0 c 23 25 1508 1430 bf 0.413333 1 0 c 23 25 1531 1430 bf 23 25 1554 1430 bf 22 25 1577 1430 bf 0.133333 1 0 c 23 25 1599 1430 bf 23 25 1622 1430 bf 23 25 1645 1430 bf 23 25 1668 1430 bf 23 25 1691 1430 bf 22 25
 1714 1430 bf 23 25 1736 1430 bf 23 25 1759 1430 bf 23 25 1782 1430 bf 0 1 0.0533333 c 23 25 1805 1430 bf 23 25 1828 1430 bf 0.133333 1 0 c 22 25 1851 1430 bf 0 1 0.0533333 c 23 26 230 1455 bf 23 26 253 1455 bf 23 26 276 1455 bf 22 26 299 1455 bf 23
 26 321 1455 bf 0.133333 1 0 c 23 26 344 1455 bf 23 26 367 1455 bf 23 26 390 1455 bf 22 26 413 1455 bf 23 26 435 1455 bf 23 26 458 1455 bf 0.413333 1 0 c 23 26 481 1455 bf 23 26 504 1455 bf 23 26 527 1455 bf 22 26 550 1455 bf 0.6 1 0 c 23 26 572 1455
 bf 23 26 595 1455 bf 23 26 618 1455 bf 23 26 641 1455 bf 0.88 1 0 c 23 26 664 1455 bf 22 26 687 1455 bf 1 0.933333 0 c 23 26 709 1455 bf 23 26 732 1455 bf 1 0.653333 0 c 23 26 755 1455 bf 23 26 778 1455 bf 22 26 801 1455 bf 23 26 823 1455 bf 23 26
 846 1455 bf 1 0.466667 0 c 23 26 869 1455 bf 23 26 892 1455 bf 23 26 915 1455 bf 22 26 938 1455 bf 23 26 1143 1455 bf 23 26 1166 1455 bf 1 0.653333 0 c 22 26 1189 1455 bf 23 26 1211 1455 bf 23 26 1234 1455 bf 1 0.933333 0 c 23 26 1257 1455 bf 23 26
 1280 1455 bf 23 26 1303 1455 bf 0.88 1 0 c 22 26 1326 1455 bf 23 26 1348 1455 bf 23 26 1371 1455 bf 0.6 1 0 c 23 26 1394 1455 bf 23 26 1417 1455 bf 23 26 1440 1455 bf 0.413333 1 0 c 22 26 1463 1455 bf 23 26 1485 1455 bf 23 26 1508 1455 bf 0.133333 1
 0 c 23 26 1531 1455 bf 23 26 1554 1455 bf 22 26 1577 1455 bf 23 26 1599 1455 bf 0 1 0.0533333 c 23 26 1622 1455 bf 0.133333 1 0 c 23 26 1645 1455 bf 23 26 1668 1455 bf 23 26 1691 1455 bf 0 1 0.0533333 c 22 26 1714 1455 bf 23 26 1736 1455 bf 23 26
 1759 1455 bf 23 26 1782 1455 bf 23 26 1805 1455 bf 23 26 1828 1455 bf 22 26 1851 1455 bf 0.133333 1 0 c 23 26 230 1481 bf 0 1 0.0533333 c 23 26 253 1481 bf 23 26 276 1481 bf 22 26 299 1481 bf 23 26 321 1481 bf 0.133333 1 0 c 23 26 344 1481 bf 23 26
 367 1481 bf 23 26 390 1481 bf 22 26 413 1481 bf 23 26 435 1481 bf 0.413333 1 0 c 23 26 458 1481 bf 23 26 481 1481 bf 23 26 504 1481 bf 23 26 527 1481 bf 22 26 550 1481 bf 0.6 1 0 c 23 26 572 1481 bf 23 26 595 1481 bf 23 26 618 1481 bf 0.88 1 0 c 23
 26 641 1481 bf 23 26 664 1481 bf 22 26 687 1481 bf 1 0.933333 0 c 23 26 709 1481 bf 23 26 732 1481 bf 23 26 755 1481 bf 1 0.653333 0 c 23 26 778 1481 bf 22 26 801 1481 bf 23 26 823 1481 bf 23 26 846 1481 bf 1 0.466667 0 c 23 26 869 1481 bf 23 26 892
 1481 bf 23 26 915 1481 bf 22 26 938 1481 bf 23 26 1143 1481 bf 1 0.653333 0 c 23 26 1166 1481 bf 22 26 1189 1481 bf 23 26 1211 1481 bf 1 0.933333 0 c 23 26 1234 1481 bf 23 26 1257 1481 bf 23 26 1280 1481 bf 23 26 1303 1481 bf 0.88 1 0 c 22 26 1326
 1481 bf 23 26 1348 1481 bf 23 26 1371 1481 bf 0.6 1 0 c 23 26 1394 1481 bf 0.88 1 0 c 23 26 1417 1481 bf 0.413333 1 0 c 23 26 1440 1481 bf 22 26 1463 1481 bf 23 26 1485 1481 bf 23 26 1508 1481 bf 23 26 1531 1481 bf 23 26 1554 1481 bf 0.133333 1 0 c
 22 26 1577 1481 bf 23 26 1599 1481 bf 23 26 1622 1481 bf 23 26 1645 1481 bf 23 26 1668 1481 bf 23 26 1691 1481 bf 0 1 0.0533333 c 22 26 1714 1481 bf 23 26 1736 1481 bf 23 26 1759 1481 bf 0 1 0.333333 c 23 26 1782 1481 bf 0 1 0.0533333 c 23 26 1805
 1481 bf 23 26 1828 1481 bf 22 26 1851 1481 bf 0.133333 1 0 c 23 25 230 1507 bf 0 1 0.0533333 c 23 25 253 1507 bf 0.133333 1 0 c 23 25 276 1507 bf 22 25 299 1507 bf 23 25 321 1507 bf 23 25 344 1507 bf 23 25 367 1507 bf 0.413333 1 0 c 23 25 390 1507
 bf 22 25 413 1507 bf 23 25 435 1507 bf 23 25 458 1507 bf 23 25 481 1507 bf 0.6 1 0 c 23 25 504 1507 bf 23 25 527 1507 bf 22 25 550 1507 bf 23 25 572 1507 bf 0.88 1 0 c 23 25 595 1507 bf 23 25 618 1507 bf 23 25 641 1507 bf 1 0.933333 0 c 23 25 664
 1507 bf 22 25 687 1507 bf 1 0.653333 0 c 23 25 709 1507 bf 23 25 732 1507 bf 23 25 755 1507 bf 1 0.466667 0 c 23 25 778 1507 bf 22 25 801 1507 bf 1 0.186667 0 c 23 25 823 1507 bf 23 25 846 1507 bf 23 25 869 1507 bf 23 25 892 1507 bf 23 25 915 1507
 bf 22 25 938 1507 bf 23 25 1143 1507 bf 23 25 1166 1507 bf 1 0.466667 0 c 22 25 1189 1507 bf 23 25 1211 1507 bf 23 25 1234 1507 bf 1 0.653333 0 c 23 25 1257 1507 bf 23 25 1280 1507 bf 23 25 1303 1507 bf 1 0.933333 0 c 22 25 1326 1507 bf 23 25 1348
 1507 bf 0.88 1 0 c 23 25 1371 1507 bf 23 25 1394 1507 bf 23 25 1417 1507 bf 23 25 1440 1507 bf 22 25 1463 1507 bf 0.6 1 0 c 23 25 1485 1507 bf 0.413333 1 0 c 23 25 1508 1507 bf 23 25 1531 1507 bf 23 25 1554 1507 bf 0.133333 1 0 c 22 25 1577 1507 bf
 23 25 1599 1507 bf 23 25 1622 1507 bf 23 25 1645 1507 bf 23 25 1668 1507 bf 23 25 1691 1507 bf 22 25 1714 1507 bf 23 25 1736 1507 bf 0 1 0.0533333 c 23 25 1759 1507 bf 23 25 1782 1507 bf 0.133333 1 0 c 23 25 1805 1507 bf 0 1 0.0533333 c 23 25 1828
 1507 bf 22 25 1851 1507 bf 0.133333 1 0 c 23 26 230 1532 bf 23 26 253 1532 bf 23 26 276 1532 bf 22 26 299 1532 bf 23 26 321 1532 bf 23 26 344 1532 bf 23 26 367 1532 bf 23 26 390 1532 bf 0.413333 1 0 c 22 26 413 1532 bf 23 26 435 1532 bf 23 26 458
 1532 bf 23 26 481 1532 bf 23 26 504 1532 bf 0.6 1 0 c 23 26 527 1532 bf 22 26 550 1532 bf 23 26 572 1532 bf 0.88 1 0 c 23 26 595 1532 bf 23 26 618 1532 bf 1 0.933333 0 c 23 26 641 1532 bf 23 26 664 1532 bf 22 26 687 1532 bf 1 0.653333 0 c 23 26 709
 1532 bf 23 26 732 1532 bf 1 0.466667 0 c 23 26 755 1532 bf 23 26 778 1532 bf 22 26 801 1532 bf 23 26 823 1532 bf 1 0.186667 0 c 23 26 846 1532 bf 23 26 869 1532 bf 23 26 892 1532 bf 23 26 915 1532 bf 22 26 938 1532 bf 23 26 1143 1532 bf 1 0.466667 0
 c 23 26 1166 1532 bf 1 0.186667 0 c 22 26 1189 1532 bf 1 0.466667 0 c 23 26 1211 1532 bf 23 26 1234 1532 bf 23 26 1257 1532 bf 23 26 1280 1532 bf 1 0.653333 0 c 23 26 1303 1532 bf 1 0.933333 0 c 22 26 1326 1532 bf 23 26 1348 1532 bf 0.88 1 0 c 23 26
 1371 1532 bf 23 26 1394 1532 bf 23 26 1417 1532 bf 23 26 1440 1532 bf 0.6 1 0 c 22 26 1463 1532 bf 23 26 1485 1532 bf 0.413333 1 0 c 23 26 1508 1532 bf 23 26 1531 1532 bf 0.133333 1 0 c 23 26 1554 1532 bf 0.413333 1 0 c 22 26 1577 1532 bf 0.133333 1
 0 c 23 26 1599 1532 bf 23 26 1622 1532 bf 23 26 1645 1532 bf 23 26 1668 1532 bf 23 26 1691 1532 bf 22 26 1714 1532 bf 23 26 1736 1532 bf 0 1 0.0533333 c 23 26 1759 1532 bf 23 26 1782 1532 bf 23 26 1805 1532 bf 23 26 1828 1532 bf 22 26 1851 1532 bf
 23 26 230 1558 bf 23 26 253 1558 bf 23 26 276 1558 bf 22 26 299 1558 bf 23 26 321 1558 bf 23 26 344 1558 bf 0.133333 1 0 c 23 26 367 1558 bf 23 26 390 1558 bf 22 26 413 1558 bf 23 26 435 1558 bf 0.413333 1 0 c 23 26 458 1558 bf 23 26 481 1558 bf
 0.133333 1 0 c 23 26 504 1558 bf 0.413333 1 0 c 23 26 527 1558 bf 22 26 550 1558 bf 0.6 1 0 c 23 26 572 1558 bf 23 26 595 1558 bf 23 26 618 1558 bf 0.88 1 0 c 23 26 641 1558 bf 23 26 664 1558 bf 22 26 687 1558 bf 23 26 709 1558 bf 1 0.933333 0 c 23
 26 732 1558 bf 23 26 755 1558 bf 1 0.653333 0 c 23 26 778 1558 bf 1 0.933333 0 c 22 26 801 1558 bf 1 0.653333 0 c 23 26 823 1558 bf 23 26 846 1558 bf 23 26 869 1558 bf 1 0.466667 0 c 23 26 892 1558 bf 1 0.653333 0 c 23 26 915 1558 bf 22 26 938 1558
 bf 23 26 1143 1558 bf 23 26 1166 1558 bf 22 26 1189 1558 bf 23 26 1211 1558 bf 23 26 1234 1558 bf 1 0.933333 0 c 23 26 1257 1558 bf 23 26 1280 1558 bf 0.88 1 0 c 23 26 1303 1558 bf 22 26 1326 1558 bf 23 26 1348 1558 bf 23 26 1371 1558 bf 0.6 1 0 c
 23 26 1394 1558 bf 23 26 1417 1558 bf 0.413333 1 0 c 23 26 1440 1558 bf 22 26 1463 1558 bf 23 26 1485 1558 bf 23 26 1508 1558 bf 0.133333 1 0 c 23 26 1531 1558 bf 23 26 1554 1558 bf 22 26 1577 1558 bf 23 26 1599 1558 bf 23 26 1622 1558 bf 23 26 1645
 1558 bf 23 26 1668 1558 bf 0 1 0.0533333 c 23 26 1691 1558 bf 22 26 1714 1558 bf 23 26 1736 1558 bf 23 26 1759 1558 bf 23 26 1782 1558 bf 23 26 1805 1558 bf 23 26 1828 1558 bf 22 26 1851 1558 bf 23 25 230 1584 bf 23 25 253 1584 bf 23 25 276 1584 bf
 22 25 299 1584 bf 23 25 321 1584 bf 23 25 344 1584 bf 0.133333 1 0 c 23 25 367 1584 bf 23 25 390 1584 bf 22 25 413 1584 bf 23 25 435 1584 bf 0.413333 1 0 c 23 25 458 1584 bf 23 25 481 1584 bf 23 25 504 1584 bf 23 25 527 1584 bf 22 25 550 1584 bf 23
 25 572 1584 bf 0.6 1 0 c 23 25 595 1584 bf 23 25 618 1584 bf 0.88 1 0 c 23 25 641 1584 bf 23 25 664 1584 bf 22 25 687 1584 bf 1 0.933333 0 c 23 25 709 1584 bf 23 25 732 1584 bf 23 25 755 1584 bf 23 25 778 1584 bf 1 0.653333 0 c 22 25 801 1584 bf 23
 25 823 1584 bf 23 25 846 1584 bf 23 25 869 1584 bf 23 25 892 1584 bf 1 0.466667 0 c 23 25 915 1584 bf 22 25 938 1584 bf 1 0.653333 0 c 23 25 1143 1584 bf 23 25 1166 1584 bf 22 25 1189 1584 bf 23 25 1211 1584 bf 1 0.933333 0 c 23 25 1234 1584 bf 23
 25 1257 1584 bf 23 25 1280 1584 bf 23 25 1303 1584 bf 22 25 1326 1584 bf 0.88 1 0 c 23 25 1348 1584 bf 23 25 1371 1584 bf 0.6 1 0 c 23 25 1394 1584 bf 23 25 1417 1584 bf 23 25 1440 1584 bf 22 25 1463 1584 bf 0.413333 1 0 c 23 25 1485 1584 bf 23 25
 1508 1584 bf 23 25 1531 1584 bf 0.133333 1 0 c 23 25 1554 1584 bf 22 25 1577 1584 bf 23 25 1599 1584 bf 23 25 1622 1584 bf 23 25 1645 1584 bf 23 25 1668 1584 bf 23 25 1691 1584 bf 0 1 0.0533333 c 22 25 1714 1584 bf 23 25 1736 1584 bf 23 25 1759 1584
 bf 23 25 1782 1584 bf 23 25 1805 1584 bf 23 25 1828 1584 bf 22 25 1851 1584 bf 0.133333 1 0 c 23 26 230 1609 bf 0 1 0.0533333 c 23 26 253 1609 bf 23 26 276 1609 bf 22 26 299 1609 bf 0.133333 1 0 c 23 26 321 1609 bf 23 26 344 1609 bf 23 26 367 1609
 bf 0.413333 1 0 c 23 26 390 1609 bf 22 26 413 1609 bf 23 26 435 1609 bf 23 26 458 1609 bf 23 26 481 1609 bf 23 26 504 1609 bf 0.6 1 0 c 23 26 527 1609 bf 22 26 550 1609 bf 0.88 1 0 c 23 26 572 1609 bf 23 26 595 1609 bf 23 26 618 1609 bf 23 26 641
 1609 bf 1 0.933333 0 c 23 26 664 1609 bf 22 26 687 1609 bf 1 0.653333 0 c 23 26 709 1609 bf 23 26 732 1609 bf 23 26 755 1609 bf 1 0.466667 0 c 23 26 778 1609 bf 22 26 801 1609 bf 23 26 823 1609 bf 1 0.186667 0 c 23 26 846 1609 bf 23 26 869 1609 bf
 23 26 892 1609 bf 1 0.466667 0 c 23 26 915 1609 bf 1 0.186667 0 c 22 26 938 1609 bf 23 26 1143 1609 bf 23 26 1166 1609 bf 1 0.466667 0 c 22 26 1189 1609 bf 23 26 1211 1609 bf 23 26 1234 1609 bf 1 0.653333 0 c 23 26 1257 1609 bf 23 26 1280 1609 bf 23
 26 1303 1609 bf 1 0.933333 0 c 22 26 1326 1609 bf 23 26 1348 1609 bf 0.88 1 0 c 23 26 1371 1609 bf 23 26 1394 1609 bf 23 26 1417 1609 bf 0.6 1 0 c 23 26 1440 1609 bf 22 26 1463 1609 bf 23 26 1485 1609 bf 23 26 1508 1609 bf 0.413333 1 0 c 23 26 1531
 1609 bf 23 26 1554 1609 bf 0.133333 1 0 c 22 26 1577 1609 bf 23 26 1599 1609 bf 23 26 1622 1609 bf 23 26 1645 1609 bf 23 26 1668 1609 bf 23 26 1691 1609 bf 22 26 1714 1609 bf 0 1 0.0533333 c 23 26 1736 1609 bf 23 26 1759 1609 bf 23 26 1782 1609 bf
 23 26 1805 1609 bf 23 26 1828 1609 bf 0.133333 1 0 c 22 26 1851 1609 bf 0 1 0.0533333 c 23 26 230 1635 bf 23 26 253 1635 bf 23 26 276 1635 bf 22 26 299 1635 bf 0.133333 1 0 c 23 26 321 1635 bf 0 1 0.0533333 c 23 26 344 1635 bf 0.133333 1 0 c 23 26
 367 1635 bf 23 26 390 1635 bf 0.413333 1 0 c 22 26 413 1635 bf 0.133333 1 0 c 23 26 435 1635 bf 0.413333 1 0 c 23 26 458 1635 bf 23 26 481 1635 bf 23 26 504 1635 bf 0.6 1 0 c 23 26 527 1635 bf 22 26 550 1635 bf 23 26 572 1635 bf 0.88 1 0 c 23 26 595
 1635 bf 23 26 618 1635 bf 1 0.933333 0 c 23 26 641 1635 bf 23 26 664 1635 bf 22 26 687 1635 bf 23 26 709 1635 bf 1 0.653333 0 c 23 26 732 1635 bf 23 26 755 1635 bf 1 0.466667 0 c 23 26 778 1635 bf 22 26 801 1635 bf 23 26 823 1635 bf 23 26 846 1635
 bf 23 26 869 1635 bf 1 0.186667 0 c 23 26 892 1635 bf 23 26 915 1635 bf 22 26 938 1635 bf 23 26 1143 1635 bf 1 0.466667 0 c 23 26 1166 1635 bf 22 26 1189 1635 bf 1 0.653333 0 c 23 26 1211 1635 bf 1 0.466667 0 c 23 26 1234 1635 bf 23 26 1257 1635 bf
 1 0.933333 0 c 23 26 1280 1635 bf 23 26 1303 1635 bf 22 26 1326 1635 bf 23 26 1348 1635 bf 0.88 1 0 c 23 26 1371 1635 bf 0.6 1 0 c 23 26 1394 1635 bf 0.88 1 0 c 23 26 1417 1635 bf 23 26 1440 1635 bf 0.6 1 0 c 22 26 1463 1635 bf 23 26 1485 1635 bf 23
 26 1508 1635 bf 0.413333 1 0 c 23 26 1531 1635 bf 23 26 1554 1635 bf 22 26 1577 1635 bf 0.133333 1 0 c 23 26 1599 1635 bf 23 26 1622 1635 bf 23 26 1645 1635 bf 23 26 1668 1635 bf 23 26 1691 1635 bf 0 1 0.0533333 c 22 26 1714 1635 bf 23 26 1736 1635
 bf 23 26 1759 1635 bf 23 26 1782 1635 bf 0.133333 1 0 c 23 26 1805 1635 bf 0 1 0.0533333 c 23 26 1828 1635 bf 0.133333 1 0 c 22 26 1851 1635 bf 0 1 0.0533333 c 23 25 230 1661 bf 0 1 0.333333 c 23 25 253 1661 bf 0 1 0.0533333 c 23 25 276 1661 bf 22
 25 299 1661 bf 23 25 321 1661 bf 23 25 344 1661 bf 23 25 367 1661 bf 0.133333 1 0 c 23 25 390 1661 bf 22 25 413 1661 bf 23 25 435 1661 bf 23 25 458 1661 bf 23 25 481 1661 bf 23 25 504 1661 bf 0.413333 1 0 c 23 25 527 1661 bf 22 25 550 1661 bf 0.6 1
 0 c 23 25 572 1661 bf 23 25 595 1661 bf 23 25 618 1661 bf 23 25 641 1661 bf 0.88 1 0 c 23 25 664 1661 bf 22 25 687 1661 bf 23 25 709 1661 bf 23 25 732 1661 bf 1 0.933333 0 c 23 25 755 1661 bf 23 25 778 1661 bf 22 25 801 1661 bf 1 0.653333 0 c 23 25
 823 1661 bf 23 25 846 1661 bf 23 25 869 1661 bf 23 25 892 1661 bf 23 25 915 1661 bf 22 25 938 1661 bf 23 25 1143 1661 bf 23 25 1166 1661 bf 22 25 1189 1661 bf 1 0.933333 0 c 23 25 1211 1661 bf 23 25 1234 1661 bf 23 25 1257 1661 bf 23 25 1280 1661 bf
 0.88 1 0 c 23 25 1303 1661 bf 22 25 1326 1661 bf 23 25 1348 1661 bf 23 25 1371 1661 bf 0.6 1 0 c 23 25 1394 1661 bf 23 25 1417 1661 bf 23 25 1440 1661 bf 0.413333 1 0 c 22 25 1463 1661 bf 23 25 1485 1661 bf 23 25 1508 1661 bf 0.133333 1 0 c 23 25
 1531 1661 bf 23 25 1554 1661 bf 22 25 1577 1661 bf 23 25 1599 1661 bf 0 1 0.0533333 c 23 25 1622 1661 bf 23 25 1645 1661 bf 0.133333 1 0 c 23 25 1668 1661 bf 23 25 1691 1661 bf 0 1 0.0533333 c 22 25 1714 1661 bf 23 25 1736 1661 bf 23 25 1759 1661 bf
 23 25 1782 1661 bf 23 25 1805 1661 bf 23 25 1828 1661 bf 22 25 1851 1661 bf 23 26 230 1686 bf 23 26 253 1686 bf 23 26 276 1686 bf 22 26 299 1686 bf 23 26 321 1686 bf 23 26 344 1686 bf 23 26 367 1686 bf 0.133333 1 0 c 23 26 390 1686 bf 22 26 413 1686
 bf 23 26 435 1686 bf 23 26 458 1686 bf 23 26 481 1686 bf 23 26 504 1686 bf 0.413333 1 0 c 23 26 527 1686 bf 22 26 550 1686 bf 0.6 1 0 c 23 26 572 1686 bf 23 26 595 1686 bf 23 26 618 1686 bf 23 26 641 1686 bf 0.88 1 0 c 23 26 664 1686 bf 22 26 687
 1686 bf 1 0.933333 0 c 23 26 709 1686 bf 23 26 732 1686 bf 23 26 755 1686 bf 1 0.653333 0 c 23 26 778 1686 bf 22 26 801 1686 bf 23 26 823 1686 bf 23 26 846 1686 bf 23 26 869 1686 bf 1 0.466667 0 c 23 26 892 1686 bf 1 0.653333 0 c 23 26 915 1686 bf
 22 26 938 1686 bf 1 0.466667 0 c 23 26 1143 1686 bf 1 0.653333 0 c 23 26 1166 1686 bf 22 26 1189 1686 bf 1 0.933333 0 c 23 26 1211 1686 bf 1 0.653333 0 c 23 26 1234 1686 bf 23 26 1257 1686 bf 1 0.933333 0 c 23 26 1280 1686 bf 23 26 1303 1686 bf 0.88
 1 0 c 22 26 1326 1686 bf 23 26 1348 1686 bf 0.6 1 0 c 23 26 1371 1686 bf 23 26 1394 1686 bf 23 26 1417 1686 bf 23 26 1440 1686 bf 0.413333 1 0 c 22 26 1463 1686 bf 23 26 1485 1686 bf 23 26 1508 1686 bf 23 26 1531 1686 bf 0.133333 1 0 c 23 26 1554
 1686 bf 22 26 1577 1686 bf 23 26 1599 1686 bf 23 26 1622 1686 bf 23 26 1645 1686 bf 23 26 1668 1686 bf 23 26 1691 1686 bf 0 1 0.0533333 c 22 26 1714 1686 bf 23 26 1736 1686 bf 23 26 1759 1686 bf 23 26 1782 1686 bf 23 26 1805 1686 bf 23 26 1828 1686
 bf 22 26 1851 1686 bf 0.133333 1 0 c 23 26 230 1712 bf 0 1 0.0533333 c 23 26 253 1712 bf 23 26 276 1712 bf 22 26 299 1712 bf 0.133333 1 0 c 23 26 321 1712 bf 23 26 344 1712 bf 23 26 367 1712 bf 23 26 390 1712 bf 0.413333 1 0 c 22 26 413 1712 bf 23
 26 435 1712 bf 23 26 458 1712 bf 23 26 481 1712 bf 23 26 504 1712 bf 23 26 527 1712 bf 0.6 1 0 c 22 26 550 1712 bf 23 26 572 1712 bf 0.88 1 0 c 23 26 595 1712 bf 23 26 618 1712 bf 1 0.933333 0 c 23 26 641 1712 bf 23 26 664 1712 bf 22 26 687 1712 bf
 23 26 709 1712 bf 1 0.653333 0 c 23 26 732 1712 bf 23 26 755 1712 bf 23 26 778 1712 bf 1 0.466667 0 c 22 26 801 1712 bf 23 26 823 1712 bf 23 26 846 1712 bf 23 26 869 1712 bf 1 0.186667 0 c 23 26 892 1712 bf 23 26 915 1712 bf 22 26 938 1712 bf 23 26
 1143 1712 bf 1 0.466667 0 c 23 26 1166 1712 bf 22 26 1189 1712 bf 23 26 1211 1712 bf 23 26 1234 1712 bf 1 0.653333 0 c 23 26 1257 1712 bf 23 26 1280 1712 bf 23 26 1303 1712 bf 1 0.933333 0 c 22 26 1326 1712 bf 0.88 1 0 c 23 26 1348 1712 bf 23 26
 1371 1712 bf 23 26 1394 1712 bf 0.6 1 0 c 23 26 1417 1712 bf 23 26 1440 1712 bf 22 26 1463 1712 bf 23 26 1485 1712 bf 23 26 1508 1712 bf 0.413333 1 0 c 23 26 1531 1712 bf 23 26 1554 1712 bf 0.133333 1 0 c 22 26 1577 1712 bf 0.413333 1 0 c 23 26 1599
 1712 bf 0.133333 1 0 c 23 26 1622 1712 bf 23 26 1645 1712 bf 23 26 1668 1712 bf 23 26 1691 1712 bf 0 1 0.0533333 c 22 26 1714 1712 bf 0.133333 1 0 c 23 26 1736 1712 bf 0 1 0.0533333 c 23 26 1759 1712 bf 23 26 1782 1712 bf 23 26 1805 1712 bf 23 26
 1828 1712 bf 22 26 1851 1712 bf 0.133333 1 0 c 23 25 230 1738 bf 0 1 0.0533333 c 23 25 253 1738 bf 23 25 276 1738 bf 0.133333 1 0 c 22 25 299 1738 bf 0 1 0.0533333 c 23 25 321 1738 bf 0.133333 1 0 c 23 25 344 1738 bf 23 25 367 1738 bf 0.413333 1 0 c
 23 25 390 1738 bf 22 25 413 1738 bf 23 25 435 1738 bf 23 25 458 1738 bf 23 25 481 1738 bf 23 25 504 1738 bf 23 25 527 1738 bf 0.6 1 0 c 22 25 550 1738 bf 23 25 572 1738 bf 0.88 1 0 c 23 25 595 1738 bf 0.6 1 0 c 23 25 618 1738 bf 0.88 1 0 c 23 25 641
 1738 bf 1 0.933333 0 c 23 25 664 1738 bf 22 25 687 1738 bf 23 25 709 1738 bf 1 0.653333 0 c 23 25 732 1738 bf 23 25 755 1738 bf 1 0.466667 0 c 23 25 778 1738 bf 1 0.186667 0 c 22 25 801 1738 bf 1 0.466667 0 c 23 25 823 1738 bf 23 25 846 1738 bf 1
 0.186667 0 c 23 25 869 1738 bf 23 25 892 1738 bf 23 25 915 1738 bf 22 25 938 1738 bf 1 0.466667 0 c 23 25 1143 1738 bf 23 25 1166 1738 bf 22 25 1189 1738 bf 23 25 1211 1738 bf 23 25 1234 1738 bf 1 0.653333 0 c 23 25 1257 1738 bf 23 25 1280 1738 bf
 23 25 1303 1738 bf 1 0.933333 0 c 22 25 1326 1738 bf 23 25 1348 1738 bf 0.88 1 0 c 23 25 1371 1738 bf 23 25 1394 1738 bf 0.6 1 0 c 23 25 1417 1738 bf 23 25 1440 1738 bf 22 25 1463 1738 bf 23 25 1485 1738 bf 0.413333 1 0 c 23 25 1508 1738 bf 23 25
 1531 1738 bf 0.133333 1 0 c 23 25 1554 1738 bf 22 25 1577 1738 bf 23 25 1599 1738 bf 23 25 1622 1738 bf 23 25 1645 1738 bf 23 25 1668 1738 bf 23 25 1691 1738 bf 22 25 1714 1738 bf 0 1 0.0533333 c 23 25 1736 1738 bf 23 25 1759 1738 bf 23 25 1782 1738
 bf 23 25 1805 1738 bf 23 25 1828 1738 bf 22 25 1851 1738 bf 23 26 230 1763 bf 23 26 253 1763 bf 23 26 276 1763 bf 22 26 299 1763 bf 23 26 321 1763 bf 23 26 344 1763 bf 23 26 367 1763 bf 0.133333 1 0 c 23 26 390 1763 bf 22 26 413 1763 bf 23 26 435
 1763 bf 23 26 458 1763 bf 23 26 481 1763 bf 0.413333 1 0 c 23 26 504 1763 bf 23 26 527 1763 bf 22 26 550 1763 bf 0.6 1 0 c 23 26 572 1763 bf 23 26 595 1763 bf 23 26 618 1763 bf 0.88 1 0 c 23 26 641 1763 bf 23 26 664 1763 bf 22 26 687 1763 bf 1
 0.933333 0 c 23 26 709 1763 bf 23 26 732 1763 bf 23 26 755 1763 bf 23 26 778 1763 bf 22 26 801 1763 bf 1 0.653333 0 c 23 26 823 1763 bf 23 26 846 1763 bf 23 26 869 1763 bf 23 26 892 1763 bf 23 26 915 1763 bf 22 26 938 1763 bf 23 26 1143 1763 bf 23
 26 1166 1763 bf 22 26 1189 1763 bf 1 0.933333 0 c 23 26 1211 1763 bf 23 26 1234 1763 bf 23 26 1257 1763 bf 0.88 1 0 c 23 26 1280 1763 bf 23 26 1303 1763 bf 22 26 1326 1763 bf 23 26 1348 1763 bf 0.6 1 0 c 23 26 1371 1763 bf 23 26 1394 1763 bf 23 26
 1417 1763 bf 0.413333 1 0 c 23 26 1440 1763 bf 22 26 1463 1763 bf 23 26 1485 1763 bf 23 26 1508 1763 bf 0.133333 1 0 c 23 26 1531 1763 bf 23 26 1554 1763 bf 22 26 1577 1763 bf 23 26 1599 1763 bf 0 1 0.0533333 c 23 26 1622 1763 bf 23 26 1645 1763 bf
 23 26 1668 1763 bf 23 26 1691 1763 bf 22 26 1714 1763 bf 23 26 1736 1763 bf 23 26 1759 1763 bf 23 26 1782 1763 bf 23 26 1805 1763 bf 23 26 1828 1763 bf 22 26 1851 1763 bf 23 26 230 1789 bf 23 26 253 1789 bf 23 26 276 1789 bf 0.133333 1 0 c 22 26 299
 1789 bf 23 26 321 1789 bf 23 26 344 1789 bf 23 26 367 1789 bf 23 26 390 1789 bf 22 26 413 1789 bf 23 26 435 1789 bf 23 26 458 1789 bf 0.413333 1 0 c 23 26 481 1789 bf 23 26 504 1789 bf 23 26 527 1789 bf 22 26 550 1789 bf 0.6 1 0 c 23 26 572 1789 bf
 23 26 595 1789 bf 23 26 618 1789 bf 23 26 641 1789 bf 0.88 1 0 c 23 26 664 1789 bf 22 26 687 1789 bf 1 0.933333 0 c 23 26 709 1789 bf 23 26 732 1789 bf 23 26 755 1789 bf 23 26 778 1789 bf 1 0.653333 0 c 22 26 801 1789 bf 23 26 823 1789 bf 23 26 846
 1789 bf 23 26 869 1789 bf 23 26 892 1789 bf 23 26 915 1789 bf 22 26 938 1789 bf 23 26 1143 1789 bf 23 26 1166 1789 bf 22 26 1189 1789 bf 23 26 1211 1789 bf 23 26 1234 1789 bf 1 0.933333 0 c 23 26 1257 1789 bf 23 26 1280 1789 bf 0.88 1 0 c 23 26 1303
 1789 bf 1 0.933333 0 c 22 26 1326 1789 bf 0.6 1 0 c 23 26 1348 1789 bf 23 26 1371 1789 bf 23 26 1394 1789 bf 23 26 1417 1789 bf 0.413333 1 0 c 23 26 1440 1789 bf 22 26 1463 1789 bf 23 26 1485 1789 bf 23 26 1508 1789 bf 0.133333 1 0 c 23 26 1531 1789
 bf 23 26 1554 1789 bf 22 26 1577 1789 bf 23 26 1599 1789 bf 0 1 0.0533333 c 23 26 1622 1789 bf 0.133333 1 0 c 23 26 1645 1789 bf 23 26 1668 1789 bf 23 26 1691 1789 bf 0 1 0.0533333 c 22 26 1714 1789 bf 23 26 1736 1789 bf 23 26 1759 1789 bf 23 26
 1782 1789 bf 23 26 1805 1789 bf 23 26 1828 1789 bf 22 26 1851 1789 bf 0.133333 1 0 c 23 25 230 1815 bf 0 1 0.0533333 c 23 25 253 1815 bf 23 25 276 1815 bf 22 25 299 1815 bf 0.133333 1 0 c 23 25 321 1815 bf 23 25 344 1815 bf 23 25 367 1815 bf
 0.413333 1 0 c 23 25 390 1815 bf 22 25 413 1815 bf 23 25 435 1815 bf 23 25 458 1815 bf 23 25 481 1815 bf 23 25 504 1815 bf 0.6 1 0 c 23 25 527 1815 bf 22 25 550 1815 bf 23 25 572 1815 bf 0.88 1 0 c 23 25 595 1815 bf 23 25 618 1815 bf 23 25 641 1815
 bf 1 0.933333 0 c 23 25 664 1815 bf 22 25 687 1815 bf 1 0.653333 0 c 23 25 709 1815 bf 1 0.933333 0 c 23 25 732 1815 bf 1 0.653333 0 c 23 25 755 1815 bf 23 25 778 1815 bf 1 0.466667 0 c 22 25 801 1815 bf 23 25 823 1815 bf 23 25 846 1815 bf 23 25 869
 1815 bf 23 25 892 1815 bf 23 25 915 1815 bf 1 0.186667 0 c 22 25 938 1815 bf 1 0.466667 0 c 23 25 1143 1815 bf 23 25 1166 1815 bf 22 25 1189 1815 bf 23 25 1211 1815 bf 1 0.653333 0 c 23 25 1234 1815 bf 23 25 1257 1815 bf 23 25 1280 1815 bf 23 25
 1303 1815 bf 1 0.933333 0 c 22 25 1326 1815 bf 0.88 1 0 c 23 25 1348 1815 bf 23 25 1371 1815 bf 23 25 1394 1815 bf 0.6 1 0 c 23 25 1417 1815 bf 23 25 1440 1815 bf 22 25 1463 1815 bf 23 25 1485 1815 bf 23 25 1508 1815 bf 0.413333 1 0 c 23 25 1531
 1815 bf 23 25 1554 1815 bf 0.133333 1 0 c 22 25 1577 1815 bf 23 25 1599 1815 bf 23 25 1622 1815 bf 23 25 1645 1815 bf 23 25 1668 1815 bf 23 25 1691 1815 bf 0 1 0.0533333 c 22 25 1714 1815 bf 23 25 1736 1815 bf 23 25 1759 1815 bf 23 25 1782 1815 bf
 23 25 1805 1815 bf 23 25 1828 1815 bf 22 25 1851 1815 bf 1 1 1 c black 230 197 m 1643 X s
 gsave  2268 1972 0 0 C 1501.95 29.5789 t 0 r /Helvetica findfont 98.5964 sf 0 0 m (Modules) show NC gr  321 240 m -43 Y s 358 219 m -22 Y s 394 219 m -22 Y s 431 219 m -22 Y s 467 219 m -22 Y s 504 240 m -43 Y s 540 219 m -22 Y s 577 219 m -22 Y s
 613 219 m -22 Y s 650 219 m -22 Y s 687 240 m -43 Y s 723 219 m -22 Y s 760 219 m -22 Y s 796 219 m -22 Y s 833 219 m -22 Y s 869 240 m -43 Y s 906 219 m -22 Y s 942 219 m -22 Y s 979 219 m -22 Y s 1015 219 m -22 Y s 1052 240 m -43 Y s 1088 219 m
 -22 Y s 1125 219 m -22 Y s 1161 219 m -22 Y s 1198 219 m -22 Y s 1234 240 m -43 Y s 1271 219 m -22 Y s 1307 219 m -22 Y s 1344 219 m -22 Y s 1380 219 m -22 Y s 1417 240 m -43 Y s 1453 219 m -22 Y s 1490 219 m -22 Y s 1526 219 m -22 Y s 1563 219 m
 -22 Y s 1599 240 m -43 Y s 1636 219 m -22 Y s 1672 219 m -22 Y s 1709 219 m -22 Y s 1746 219 m -22 Y s 1782 240 m -43 Y s 321 240 m -43 Y s 285 219 m -22 Y s 248 219 m -22 Y s 1782 240 m -43 Y s 1819 219 m -22 Y s 1855 219 m -22 Y s
 gsave  2268 1972 0 0 C 318.795 134.748 t 0 r /Helvetica findfont 62.4444 sf 0 0 m (4) show NC gr 
 gsave  2268 1972 0 0 C 282.643 134.748 t 0 r /Symbol findfont 62.4444 sf 0 0 m (-) show NC gr 
 gsave  2268 1972 0 0 C 502.841 134.748 t 0 r /Helvetica findfont 62.4444 sf 0 0 m (3) show NC gr 
 gsave  2268 1972 0 0 C 466.689 134.748 t 0 r /Symbol findfont 62.4444 sf 0 0 m (-) show NC gr 
 gsave  2268 1972 0 0 C 683.602 134.748 t 0 r /Helvetica findfont 62.4444 sf 0 0 m (2) show NC gr 
 gsave  2268 1972 0 0 C 647.45 134.748 t 0 r /Symbol findfont 62.4444 sf 0 0 m (-) show NC gr 
 gsave  2268 1972 0 0 C 870.935 134.748 t 0 r /Helvetica findfont 62.4444 sf 0 0 m (1) show NC gr 
 gsave  2268 1972 0 0 C 838.069 134.748 t 0 r /Symbol findfont 62.4444 sf 0 0 m (-) show NC gr 
 gsave  2268 1972 0 0 C 1035.26 134.748 t 0 r /Helvetica findfont 62.4444 sf 0 0 m (0) show NC gr 
 gsave  2268 1972 0 0 C 1219.31 134.748 t 0 r /Helvetica findfont 62.4444 sf 0 0 m (1) show NC gr 
 gsave  2268 1972 0 0 C 1400.07 134.748 t 0 r /Helvetica findfont 62.4444 sf 0 0 m (2) show NC gr 
 gsave  2268 1972 0 0 C 1580.83 134.748 t 0 r /Helvetica findfont 62.4444 sf 0 0 m (3) show NC gr 
 gsave  2268 1972 0 0 C 1764.88 134.748 t 0 r /Helvetica findfont 62.4444 sf 0 0 m (4) show NC gr  230 197 m 1643 Y s
 gsave  2268 1972 0 0 C 101.883 1485.52 t 90 r /Helvetica findfont 98.5964 sf 0 0 m (Ladders) show NC gr  287 249 m -57 X s 258 300 m -28 X s 258 351 m -28 X s 258 403 m -28 X s 258 454 m -28 X s 287 505 m -57 X s 258 557 m -28 X s 258 608 m -28 X s
 258 659 m -28 X s 258 711 m -28 X s 287 762 m -57 X s 258 813 m -28 X s 258 865 m -28 X s 258 916 m -28 X s 258 967 m -28 X s 287 1019 m -57 X s 258 1070 m -28 X s 258 1122 m -28 X s 258 1173 m -28 X s 258 1224 m -28 X s 287 1276 m -57 X s 258 1327
 m -28 X s 258 1378 m -28 X s 258 1430 m -28 X s 258 1481 m -28 X s 287 1532 m -57 X s 258 1584 m -28 X s 258 1635 m -28 X s 258 1686 m -28 X s 258 1738 m -28 X s 287 1789 m -57 X s 287 249 m -57 X s 258 197 m -28 X s 287 1789 m -57 X s
 gsave  2268 1972 0 0 C 147.895 226.772 t 0 r /Helvetica findfont 62.4444 sf 0 0 m (15) show NC gr 
 gsave  2268 1972 0 0 C 111.743 226.772 t 0 r /Symbol findfont 62.4444 sf 0 0 m (-) show NC gr 
 gsave  2268 1972 0 0 C 147.895 483.122 t 0 r /Helvetica findfont 62.4444 sf 0 0 m (10) show NC gr 
 gsave  2268 1972 0 0 C 111.743 483.122 t 0 r /Symbol findfont 62.4444 sf 0 0 m (-) show NC gr 
 gsave  2268 1972 0 0 C 184.047 739.473 t 0 r /Helvetica findfont 62.4444 sf 0 0 m (5) show NC gr 
 gsave  2268 1972 0 0 C 147.895 739.473 t 0 r /Symbol findfont 62.4444 sf 0 0 m (-) show NC gr 
 gsave  2268 1972 0 0 C 184.047 995.823 t 0 r /Helvetica findfont 62.4444 sf 0 0 m (0) show NC gr 
 gsave  2268 1972 0 0 C 184.047 1255.46 t 0 r /Helvetica findfont 62.4444 sf 0 0 m (5) show NC gr 
 gsave  2268 1972 0 0 C 147.895 1511.81 t 0 r /Helvetica findfont 62.4444 sf 0 0 m (10) show NC gr 
 gsave  2268 1972 0 0 C 147.895 1768.16 t 0 r /Helvetica findfont 62.4444 sf 0 0 m (15) show NC gr  0.386667 0 1 c 82 82 1890 197 bf 0.2 0 1 c 82 83 1890 279 bf 0 0.0800001 1 c 82 82 1890 362 bf 0 0.266667 1 c 82 82 1890 444 bf 0 0.546666 1 c 82 82
 1890 526 bf 0 0.733333 1 c 82 82 1890 608 bf 0 1 0.986667 c 82 82 1890 690 bf 0 1 0.8 c 82 83 1890 772 bf 0 1 0.52 c 82 82 1890 855 bf 0 1 0.333333 c 82 82 1890 937 bf 0 1 0.0533333 c 82 82 1890 1019 bf 0.133333 1 0 c 82 82 1890 1101 bf 0.413333 1 0
 c 82 82 1890 1183 bf 0.6 1 0 c 82 82 1890 1265 bf 0.88 1 0 c 82 83 1890 1347 bf 1 0.933333 0 c 82 82 1890 1430 bf 1 0.653333 0 c 82 82 1890 1512 bf 1 0.466667 0 c 82 82 1890 1594 bf 1 0.186667 0 c 82 82 1890 1676 bf 1 0 0 c 82 82 1890 1758 bf black
 1972 197 m 1643 Y s
 gsave  2268 1972 0 0 C 2185.55 1840.47 t 270 r /Helvetica findfont 98.5964 sf 0 0 m (Cluster Occupancy\255 Layer 2) show NC gr  1915 197 m 57 X s 1915 408 m 57 X s 1915 618 m 57 X s 1915 828 m 57 X s 1915 1039 m 57 X s 1915 1249 m 57 X s 1915 1459 m
 57 X s 1915 1670 m 57 X s 1915 1670 m 57 X s
 gsave  2268 1972 0 0 C 1981.79 174.187 t 0 r /Helvetica findfont 62.4444 sf 0 0 m (0) show NC gr 
 gsave  2268 1972 0 0 C 1981.79 387.812 t 0 r /Helvetica findfont 62.4444 sf 0 0 m (1000) show NC gr 
 gsave  2268 1972 0 0 C 1981.79 598.151 t 0 r /Helvetica findfont 62.4444 sf 0 0 m (2000) show NC gr 
 gsave  2268 1972 0 0 C 1981.79 808.49 t 0 r /Helvetica findfont 62.4444 sf 0 0 m (3000) show NC gr 
 gsave  2268 1972 0 0 C 1981.79 1018.83 t 0 r /Helvetica findfont 62.4444 sf 0 0 m (4000) show NC gr 
 gsave  2268 1972 0 0 C 1981.79 1229.17 t 0 r /Helvetica findfont 62.4444 sf 0 0 m (5000) show NC gr 
 gsave  2268 1972 0 0 C 1981.79 1439.51 t 0 r /Helvetica findfont 62.4444 sf 0 0 m (6000) show NC gr 
 gsave  2268 1972 0 0 C 1981.79 1649.85 t 0 r /Helvetica findfont 62.4444 sf 0 0 m (7000) show NC gr  1 1 1 c black
 gsave  2268 1972 0 0 C 1423.07 1873.33 t 0 r /Helvetica findfont 85.4502 sf 0 0 m (=13 TeV \(50ns\)) show NC gr 
 gsave  2268 1972 0 0 C 1380.35 1873.33 t 0 r /Helvetica findfont 85.4502 sf 0 0 m (s) show NC gr  6 lw 1351 1923 m 10 -53 d s 0 lw 1361 1870 m 9 72 d s 1370 1942 m 53 X s 3 lw 1143 1019 m 425 X s 1568 1037 m 31 -18 d -31 -19 d f 1568 1037 m 31 -18 d
 -31 -19 d 37 Y cl s
 gsave  2268 1972 0 0 C 1140.43 982.677 t 0 r /Helvetica-Bold findfont 46.0116 sf 0 0 m (z\255axis \(along beam\)) show NC gr  1052 1455 m -404 Y s 1070 1051 m -18 -32 d -19 32 d f 1070 1051 m -18 -32 d -19 32 d 37 X cl s
 gsave  2268 1972 0 0 C 1031.98 1291.61 t 90 r /Symbol findfont 46.0116 sf 0 0 m (f) show NC gr 
 gsave  2268 1972 0 0 C 1031.98 1137.14 t 90 r /Helvetica-Bold findfont 46.0116 sf 0 0 m (global ) show NC gr 
 gsave  2268 1972 0 0 C 1104.28 1442.79 t 90 r /Helvetica-Bold findfont 46.0116 sf 0 0 m (0) show NC gr 
 gsave  2268 1972 0 0 C 1104.28 1064.84 t 90 r /Helvetica-Bold findfont 46.0116 sf 0 0 m (/2) show NC gr 
 gsave  2268 1972 0 0 C 1104.28 1038.55 t 90 r /Symbol findfont 46.0116 sf 0 0 m (p) show NC gr 
 gsave  2268 1972 0 0 C 230.058 1883.19 t 0 r /Helvetica-Bold findfont 92.0233 sf 0 0 m (CMS preliminary) show NC gr 
 gr  gr showpage
end
%%EOF
